{
"instructions_readme": "1) Open Chrome, 2) go to chrome://tracing, 3) click Load, 4) navigate to this file.",

"traceEvents":[
{ "pid": 1, "tid": 1, "ph": "M", "name": "thread_name", "args": { "name": "" } },
{ "pid": 1, "tid": 1, "ts": 590.0999903678894, "dur": 6463968.26171875, "ph": "X", "name": "il2cpp.exe", "args": { "durationMS": 6463.96826171875, "detail": "" } },
{ "pid": 1, "tid": 1, "ts": 20393.400192260742, "dur": 6443478.02734375, "ph": "X", "name": "Build", "args": { "durationMS": 6443.47802734375, "detail": "" } },
{ "pid": 1, "tid": 1, "ts": 24884.09996032715, "dur": 6438429.6875, "ph": "X", "name": "BuildBinary", "args": { "durationMS": 6438.4296875, "detail": "" } },
{ "pid": 1, "tid": 1, "ts": 25032.60040283203, "dur": 69271.40045166016, "ph": "X", "name": "FindFilesToCompile", "args": { "durationMS": 69.27140045166016, "detail": "" } },
{ "pid": 1, "tid": 1, "ts": 94397.79663085938, "dur": 73292.19818115234, "ph": "X", "name": "Calculate header hashes", "args": { "durationMS": 73.29219818115234, "detail": "" } },
{ "pid": 1, "tid": 1, "ts": 167690.09399414062, "dur": 12300.999641418457, "ph": "X", "name": "Calculate lumped hashes", "args": { "durationMS": 12.300999641418457, "detail": "" } },
{ "pid": 1, "tid": 1, "ts": 180050.7049560547, "dur": 2554002.9296875, "ph": "X", "name": "BuildAllCppFiles", "args": { "durationMS": 2554.0029296875, "detail": "" } },
{ "pid": 1, "tid": 1, "ts": 183726.3946533203, "dur": 2550326.66015625, "ph": "X", "name": "Compile", "args": { "durationMS": 2550.32666015625, "detail": "" } },
{ "pid": 1, "tid": 1, "ts": 2734063.232421875, "dur": 413.8999879360199, "ph": "X", "name": "OnBeforeLink Build", "args": { "durationMS": 0.4138999879360199, "detail": "" } },
{ "pid": 1, "tid": 1, "ts": 2734477.05078125, "dur": 3608296.630859375, "ph": "X", "name": "Postprocess Object Files", "args": { "durationMS": 3608.296630859375, "detail": "" } },
{ "pid": 1, "tid": 1, "ts": 2736014.16015625, "dur": 3606759.033203125, "ph": "X", "name": "Link", "args": { "durationMS": 3606.759033203125, "detail": "libil2cpp.so" } },
{ "pid": 1, "tid": 1, "ts": 2744843.994140625, "dur": 7713.099956512451, "ph": "X", "name": "hash linker invocation", "args": { "durationMS": 7.713099956512451, "detail": "" } },
{ "pid": 1, "tid": 1, "ts": 2755757.32421875, "dur": 2938042.48046875, "ph": "X", "name": "ActualLinkerInvocation", "args": { "durationMS": 2938.04248046875, "detail": "libil2cpp.so" } },
{ "pid": 1, "tid": 1, "ts": 5694015.13671875, "dur": 558435.2416992188, "ph": "X", "name": "ToolChain OnAfterLink Build", "args": { "durationMS": 558.4352416992188, "detail": "" } },
{ "pid": 1, "tid": 1, "ts": 5696758.30078125, "dur": 72457.80181884766, "ph": "X", "name": "strip", "args": { "durationMS": 72.45780181884766, "detail": "" } },
{ "pid": 1, "tid": 1, "ts": 5769258.7890625, "dur": 220409.69848632812, "ph": "X", "name": "strip", "args": { "durationMS": 220.40969848632812, "detail": "debug" } },
{ "pid": 1, "tid": 1, "ts": 5989880.859375, "dur": 262569.0002441406, "ph": "X", "name": "strip", "args": { "durationMS": 262.5690002441406, "detail": "debug link" } },
{ "pid": 1, "tid": 1, "ts": 6342774.4140625, "dur": 89247.49755859375, "ph": "X", "name": "ProgramDescription Finalize Build", "args": { "durationMS": 89.24749755859375, "detail": "" } },
{ "pid": 1, "tid": 1, "ts": 6432022.4609375, "dur": 31291.29981994629, "ph": "X", "name": "Clean IL2CPP Cache", "args": { "durationMS": 31.29129981994629, "detail": "" } },
{ "pid": 1, "tid": 5, "ph": "M", "name": "thread_name", "args": { "name": "" } },
{ "pid": 1, "tid": 5, "ts": 143160.400390625, "dur": 3938.1000995635986, "ph": "X", "name": "FileHashProvider.Initialize", "args": { "durationMS": 3.9381000995635986, "detail": "." } },
{ "pid": 1, "tid": 5, "ts": 143962.6007080078, "dur": 2117.300033569336, "ph": "X", "name": "HashOfAllFilesWithProviderExtensionInDirectory", "args": { "durationMS": 2.117300033569336, "detail": ".h ." } },
{ "pid": 1, "tid": 5, "ts": 146086.19689941406, "dur": 1011.5000009536743, "ph": "X", "name": "HashOfAllFilesWithProviderExtensionInDirectory", "args": { "durationMS": 1.0115000009536743, "detail": ".inc ." } },
{ "pid": 1, "tid": 6, "ph": "M", "name": "thread_name", "args": { "name": "" } },
{ "pid": 1, "tid": 6, "ts": 143190.5975341797, "dur": 3889.699935913086, "ph": "X", "name": "FileHashProvider.Initialize", "args": { "durationMS": 3.889699935913086, "detail": "C:\\Personal\\Dev\\Projects\\Enixan Test\\Library\\Il2cppBuildCache\\Android\\armeabi-v7a\\il2cppOutput" } },
{ "pid": 1, "tid": 6, "ts": 143966.796875, "dur": 2113.600015640259, "ph": "X", "name": "HashOfAllFilesWithProviderExtensionInDirectory", "args": { "durationMS": 2.113600015640259, "detail": ".h C:\\Personal\\Dev\\Projects\\Enixan Test\\Library\\Il2cppBuildCache\\Android\\armeabi-v7a\\il2cppOutput" } },
{ "pid": 1, "tid": 6, "ts": 146088.89770507812, "dur": 989.4000291824341, "ph": "X", "name": "HashOfAllFilesWithProviderExtensionInDirectory", "args": { "durationMS": 0.9894000291824341, "detail": ".inc C:\\Personal\\Dev\\Projects\\Enixan Test\\Library\\Il2cppBuildCache\\Android\\armeabi-v7a\\il2cppOutput" } },
{ "pid": 1, "tid": 7, "ph": "M", "name": "thread_name", "args": { "name": "" } },
{ "pid": 1, "tid": 7, "ts": 143191.19262695312, "dur": 11385.600090026855, "ph": "X", "name": "FileHashProvider.Initialize", "args": { "durationMS": 11.385600090026855, "detail": "C:\\Program Files\\Unity\\Hub\\Editor\\2020.3.18f1\\Editor\\Data\\il2cpp\\external\\baselib\\Include" } },
{ "pid": 1, "tid": 7, "ts": 143976.50146484375, "dur": 9935.89973449707, "ph": "X", "name": "HashOfAllFilesWithProviderExtensionInDirectory", "args": { "durationMS": 9.93589973449707, "detail": ".h C:\\Program Files\\Unity\\Hub\\Editor\\2020.3.18f1\\Editor\\Data\\il2cpp\\external\\baselib\\Include" } },
{ "pid": 1, "tid": 7, "ts": 153917.58728027344, "dur": 651.7999768257141, "ph": "X", "name": "HashOfAllFilesWithProviderExtensionInDirectory", "args": { "durationMS": 0.6517999768257141, "detail": ".inc C:\\Program Files\\Unity\\Hub\\Editor\\2020.3.18f1\\Editor\\Data\\il2cpp\\external\\baselib\\Include" } },
{ "pid": 1, "tid": 12, "ph": "M", "name": "thread_name", "args": { "name": "" } },
{ "pid": 1, "tid": 12, "ts": 143195.20568847656, "dur": 7558.499813079834, "ph": "X", "name": "FileHashProvider.Initialize", "args": { "durationMS": 7.558499813079834, "detail": "C:\\Program Files\\Unity\\Hub\\Editor\\2020.3.18f1\\Editor\\Data\\il2cpp\\external\\baselib\\Platforms\\Android\\Include" } },
{ "pid": 1, "tid": 12, "ts": 144006.3934326172, "dur": 6370.999813079834, "ph": "X", "name": "HashOfAllFilesWithProviderExtensionInDirectory", "args": { "durationMS": 6.370999813079834, "detail": ".h C:\\Program Files\\Unity\\Hub\\Editor\\2020.3.18f1\\Editor\\Data\\il2cpp\\external\\baselib\\Platforms\\Android\\Include" } },
{ "pid": 1, "tid": 12, "ts": 150389.29748535156, "dur": 363.20000886917114, "ph": "X", "name": "HashOfAllFilesWithProviderExtensionInDirectory", "args": { "durationMS": 0.36320000886917114, "detail": ".inc C:\\Program Files\\Unity\\Hub\\Editor\\2020.3.18f1\\Editor\\Data\\il2cpp\\external\\baselib\\Platforms\\Android\\Include" } },
{ "pid": 1, "tid": 8, "ph": "M", "name": "thread_name", "args": { "name": "" } },
{ "pid": 1, "tid": 8, "ts": 143200.69885253906, "dur": 9383.399963378906, "ph": "X", "name": "FileHashProvider.Initialize", "args": { "durationMS": 9.383399963378906, "detail": "C:\\Program Files\\Unity\\Hub\\Editor\\2020.3.18f1\\Editor\\Data\\il2cpp\\external\\bdwgc\\include" } },
{ "pid": 1, "tid": 8, "ts": 143972.59521484375, "dur": 8186.9001388549805, "ph": "X", "name": "HashOfAllFilesWithProviderExtensionInDirectory", "args": { "durationMS": 8.18690013885498, "detail": ".h C:\\Program Files\\Unity\\Hub\\Editor\\2020.3.18f1\\Editor\\Data\\il2cpp\\external\\bdwgc\\include" } },
{ "pid": 1, "tid": 8, "ts": 152162.3992919922, "dur": 412.6000106334686, "ph": "X", "name": "HashOfAllFilesWithProviderExtensionInDirectory", "args": { "durationMS": 0.41260001063346863, "detail": ".inc C:\\Program Files\\Unity\\Hub\\Editor\\2020.3.18f1\\Editor\\Data\\il2cpp\\external\\bdwgc\\include" } },
{ "pid": 1, "tid": 9, "ph": "M", "name": "thread_name", "args": { "name": "" } },
{ "pid": 1, "tid": 9, "ts": 143203.59802246094, "dur": 10247.099876403809, "ph": "X", "name": "FileHashProvider.Initialize", "args": { "durationMS": 10.247099876403809, "detail": "C:\\Program Files\\Unity\\Hub\\Editor\\2020.3.18f1\\Editor\\Data\\il2cpp\\external\\bdwgc\\libatomic_ops\\src" } },
{ "pid": 1, "tid": 9, "ts": 143977.4932861328, "dur": 8776.000022888184, "ph": "X", "name": "HashOfAllFilesWithProviderExtensionInDirectory", "args": { "durationMS": 8.776000022888184, "detail": ".h C:\\Program Files\\Unity\\Hub\\Editor\\2020.3.18f1\\Editor\\Data\\il2cpp\\external\\bdwgc\\libatomic_ops\\src" } },
{ "pid": 1, "tid": 9, "ts": 152761.19995117188, "dur": 684.8000288009644, "ph": "X", "name": "HashOfAllFilesWithProviderExtensionInDirectory", "args": { "durationMS": 0.6848000288009644, "detail": ".inc C:\\Program Files\\Unity\\Hub\\Editor\\2020.3.18f1\\Editor\\Data\\il2cpp\\external\\bdwgc\\libatomic_ops\\src" } },
{ "pid": 1, "tid": 10, "ph": "M", "name": "thread_name", "args": { "name": "" } },
{ "pid": 1, "tid": 10, "ts": 143207.00073242188, "dur": 7279.900074005127, "ph": "X", "name": "FileHashProvider.Initialize", "args": { "durationMS": 7.279900074005127, "detail": "C:\\Program Files\\Unity\\Hub\\Editor\\2020.3.18f1\\Editor\\Data\\il2cpp\\external\\xxHash" } },
{ "pid": 1, "tid": 10, "ts": 143969.20776367188, "dur": 5984.7002029418945, "ph": "X", "name": "HashOfAllFilesWithProviderExtensionInDirectory", "args": { "durationMS": 5.9847002029418945, "detail": ".h C:\\Program Files\\Unity\\Hub\\Editor\\2020.3.18f1\\Editor\\Data\\il2cpp\\external\\xxHash" } },
{ "pid": 1, "tid": 10, "ts": 149958.0078125, "dur": 527.3000001907349, "ph": "X", "name": "HashOfAllFilesWithProviderExtensionInDirectory", "args": { "durationMS": 0.5273000001907349, "detail": ".inc C:\\Program Files\\Unity\\Hub\\Editor\\2020.3.18f1\\Editor\\Data\\il2cpp\\external\\xxHash" } },
{ "pid": 1, "tid": 11, "ph": "M", "name": "thread_name", "args": { "name": "" } },
{ "pid": 1, "tid": 11, "ts": 143213.39416503906, "dur": 24437.5, "ph": "X", "name": "FileHashProvider.Initialize", "args": { "durationMS": 24.4375, "detail": "C:\\Program Files\\Unity\\Hub\\Editor\\2020.3.18f1\\Editor\\Data\\il2cpp\\libil2cpp" } },
{ "pid": 1, "tid": 11, "ts": 143991.5008544922, "dur": 20942.899703979492, "ph": "X", "name": "HashOfAllFilesWithProviderExtensionInDirectory", "args": { "durationMS": 20.942899703979492, "detail": ".h C:\\Program Files\\Unity\\Hub\\Editor\\2020.3.18f1\\Editor\\Data\\il2cpp\\libil2cpp" } },
{ "pid": 1, "tid": 11, "ts": 164937.2100830078, "dur": 2690.2999877929688, "ph": "X", "name": "HashOfAllFilesWithProviderExtensionInDirectory", "args": { "durationMS": 2.6902999877929688, "detail": ".inc C:\\Program Files\\Unity\\Hub\\Editor\\2020.3.18f1\\Editor\\Data\\il2cpp\\libil2cpp" } },
{ "pid": 1, "tid": 13, "ph": "M", "name": "thread_name", "args": { "name": "" } },
{ "pid": 1, "tid": 13, "ts": 143216.88842773438, "dur": 7152.900218963623, "ph": "X", "name": "FileHashProvider.Initialize", "args": { "durationMS": 7.152900218963623, "detail": "C:\\Program Files\\Unity\\Hub\\Editor\\2020.3.18f1\\Editor\\Data\\il2cpp\\libil2cpp\\pch" } },
{ "pid": 1, "tid": 13, "ts": 144006.3934326172, "dur": 5927.299976348877, "ph": "X", "name": "HashOfAllFilesWithProviderExtensionInDirectory", "args": { "durationMS": 5.927299976348877, "detail": ".h C:\\Program Files\\Unity\\Hub\\Editor\\2020.3.18f1\\Editor\\Data\\il2cpp\\libil2cpp\\pch" } },
{ "pid": 1, "tid": 13, "ts": 149936.8896484375, "dur": 430.70000410079956, "ph": "X", "name": "HashOfAllFilesWithProviderExtensionInDirectory", "args": { "durationMS": 0.43070000410079956, "detail": ".inc C:\\Program Files\\Unity\\Hub\\Editor\\2020.3.18f1\\Editor\\Data\\il2cpp\\libil2cpp\\pch" } },
{ "pid": 1, "tid": 22, "ph": "M", "name": "thread_name", "args": { "name": "" } },
{ "pid": 1, "tid": 22, "ts": 146121.59729003906, "dur": 3730.299949645996, "ph": "X", "name": "HashOfFile", "args": { "durationMS": 3.730299949645996, "detail": "C:\\Program Files\\Unity\\Hub\\Editor\\2020.3.18f1\\Editor\\Data\\il2cpp\\external\\baselib\\Platforms\\Android\\Include\\BaselibPlatformSpecificEnvironment.h" } },
{ "pid": 1, "tid": 31, "ph": "M", "name": "thread_name", "args": { "name": "" } },
{ "pid": 1, "tid": 31, "ts": 146126.00708007812, "dur": 3725.300073623657, "ph": "X", "name": "HashOfFile", "args": { "durationMS": 3.7253000736236572, "detail": "C:\\Program Files\\Unity\\Hub\\Editor\\2020.3.18f1\\Editor\\Data\\il2cpp\\external\\bdwgc\\include\\cord.h" } },
{ "pid": 1, "tid": 31, "ts": 151572.0977783203, "dur": 363.20000886917114, "ph": "X", "name": "HashOfFile", "args": { "durationMS": 0.36320000886917114, "detail": "C:\\Program Files\\Unity\\Hub\\Editor\\2020.3.18f1\\Editor\\Data\\il2cpp\\external\\bdwgc\\include\\private\\gcconfig.h" } },
{ "pid": 1, "tid": 21, "ph": "M", "name": "thread_name", "args": { "name": "" } },
{ "pid": 1, "tid": 21, "ts": 146131.103515625, "dur": 3719.1998958587646, "ph": "X", "name": "HashOfFile", "args": { "durationMS": 3.7191998958587646, "detail": "C:\\Program Files\\Unity\\Hub\\Editor\\2020.3.18f1\\Editor\\Data\\il2cpp\\external\\xxHash\\xxh3.h" } },
{ "pid": 1, "tid": 24, "ph": "M", "name": "thread_name", "args": { "name": "" } },
{ "pid": 1, "tid": 24, "ts": 146140.89965820312, "dur": 3710.9999656677246, "ph": "X", "name": "HashOfFile", "args": { "durationMS": 3.7109999656677246, "detail": "C:\\Program Files\\Unity\\Hub\\Editor\\2020.3.18f1\\Editor\\Data\\il2cpp\\external\\baselib\\Platforms\\Android\\Include\\C\\Baselib_ErrorState.inl.h" } },
{ "pid": 1, "tid": 25, "ph": "M", "name": "thread_name", "args": { "name": "" } },
{ "pid": 1, "tid": 25, "ts": 146141.69311523438, "dur": 3710.0000381469727, "ph": "X", "name": "HashOfFile", "args": { "durationMS": 3.7100000381469727, "detail": "C:\\Program Files\\Unity\\Hub\\Editor\\2020.3.18f1\\Editor\\Data\\il2cpp\\libil2cpp\\pch\\pch-c.h" } },
{ "pid": 1, "tid": 33, "ph": "M", "name": "thread_name", "args": { "name": "" } },
{ "pid": 1, "tid": 33, "ts": 146146.49963378906, "dur": 3703.900098800659, "ph": "X", "name": "HashOfFile", "args": { "durationMS": 3.703900098800659, "detail": "C:\\Program Files\\Unity\\Hub\\Editor\\2020.3.18f1\\Editor\\Data\\il2cpp\\external\\bdwgc\\libatomic_ops\\src\\atomic_ops.h" } },
{ "pid": 1, "tid": 33, "ts": 149866.69921875, "dur": 570.5000162124634, "ph": "X", "name": "HashOfFile", "args": { "durationMS": 0.5705000162124634, "detail": "C:\\Program Files\\Unity\\Hub\\Editor\\2020.3.18f1\\Editor\\Data\\il2cpp\\external\\bdwgc\\libatomic_ops\\src\\atomic_ops\\generalize-arithm.h" } },
{ "pid": 1, "tid": 35, "ph": "M", "name": "thread_name", "args": { "name": "" } },
{ "pid": 1, "tid": 35, "ts": 146151.0009765625, "dur": 3700.0999450683594, "ph": "X", "name": "HashOfFile", "args": { "durationMS": 3.7000999450683594, "detail": "C:\\Program Files\\Unity\\Hub\\Editor\\2020.3.18f1\\Editor\\Data\\il2cpp\\external\\baselib\\Include\\Baselib.h" } },
{ "pid": 1, "tid": 32, "ph": "M", "name": "thread_name", "args": { "name": "" } },
{ "pid": 1, "tid": 32, "ts": 146154.99877929688, "dur": 3695.69993019104, "ph": "X", "name": "HashOfFile", "args": { "durationMS": 3.69569993019104, "detail": "C:\\Program Files\\Unity\\Hub\\Editor\\2020.3.18f1\\Editor\\Data\\il2cpp\\external\\bdwgc\\include\\cord_pos.h" } },
{ "pid": 1, "tid": 32, "ts": 150210.80017089844, "dur": 489.19999599456787, "ph": "X", "name": "HashOfFile", "args": { "durationMS": 0.48919999599456787, "detail": "C:\\Program Files\\Unity\\Hub\\Editor\\2020.3.18f1\\Editor\\Data\\il2cpp\\external\\bdwgc\\include\\gc.h" } },
{ "pid": 1, "tid": 32, "ts": 151472.99194335938, "dur": 340.7000005245209, "ph": "X", "name": "HashOfFile", "args": { "durationMS": 0.3407000005245209, "detail": "C:\\Program Files\\Unity\\Hub\\Editor\\2020.3.18f1\\Editor\\Data\\il2cpp\\external\\bdwgc\\include\\private\\gc_priv.h" } },
{ "pid": 1, "tid": 34, "ph": "M", "name": "thread_name", "args": { "name": "" } },
{ "pid": 1, "tid": 34, "ts": 146157.89794921875, "dur": 3692.699909210205, "ph": "X", "name": "HashOfFile", "args": { "durationMS": 3.692699909210205, "detail": "C:\\Program Files\\Unity\\Hub\\Editor\\2020.3.18f1\\Editor\\Data\\il2cpp\\external\\bdwgc\\libatomic_ops\\src\\atomic_ops\\ao_version.h" } },
{ "pid": 1, "tid": 34, "ts": 149863.49487304688, "dur": 391.9999897480011, "ph": "X", "name": "HashOfFile", "args": { "durationMS": 0.3919999897480011, "detail": "C:\\Program Files\\Unity\\Hub\\Editor\\2020.3.18f1\\Editor\\Data\\il2cpp\\external\\bdwgc\\libatomic_ops\\src\\atomic_ops\\generalize-small.h" } },
{ "pid": 1, "tid": 23, "ph": "M", "name": "thread_name", "args": { "name": "" } },
{ "pid": 1, "tid": 23, "ts": 146159.60693359375, "dur": 3691.9000148773193, "ph": "X", "name": "HashOfFile", "args": { "durationMS": 3.6919000148773193, "detail": "C:\\Program Files\\Unity\\Hub\\Editor\\2020.3.18f1\\Editor\\Data\\il2cpp\\external\\xxHash\\xxhash.h" } },
{ "pid": 1, "tid": 36, "ph": "M", "name": "thread_name", "args": { "name": "" } },
{ "pid": 1, "tid": 36, "ts": 146161.60583496094, "dur": 3689.199924468994, "ph": "X", "name": "HashOfFile", "args": { "durationMS": 3.689199924468994, "detail": "C:\\Program Files\\Unity\\Hub\\Editor\\2020.3.18f1\\Editor\\Data\\il2cpp\\external\\baselib\\Include\\C\\Baselib_Alignment.h" } },
{ "pid": 1, "tid": 50, "ph": "M", "name": "thread_name", "args": { "name": "" } },
{ "pid": 1, "tid": 50, "ts": 154831.40563964844, "dur": 1192.8999423980713, "ph": "X", "name": "HashOfFile", "args": { "durationMS": 1.1928999423980713, "detail": "C:\\Program Files\\Unity\\Hub\\Editor\\2020.3.18f1\\Editor\\Data\\il2cpp\\libil2cpp\\icalls\\mscorlib\\System.Globalization\\Generated\\CultureInfoTablesNet_4_0.h" } },
{ "pid": 1, "tid": 50, "ts": 158120.49865722656, "dur": 583.9999914169312, "ph": "X", "name": "HashOfFile", "args": { "durationMS": 0.5839999914169312, "detail": "C:\\Program Files\\Unity\\Hub\\Editor\\2020.3.18f1\\Editor\\Data\\il2cpp\\libil2cpp\\il2cpp-normalization-tables.h" } },
{ "pid": 1, "tid": 57, "ph": "M", "name": "thread_name", "args": { "name": "" } },
{ "pid": 1, "tid": 57, "ts": 168504.28771972656, "dur": 7763.100147247314, "ph": "X", "name": "FileHashProvider.Initialize", "args": { "durationMS": 7.7631001472473145, "detail": "C:\\Program Files\\Unity\\Hub\\Editor\\2020.3.18f1\\Editor\\Data\\il2cpp\\external\\bdwgc" } },
{ "pid": 1, "tid": 57, "ts": 168510.10131835938, "dur": 1841.8999910354614, "ph": "X", "name": "HashOfAllFilesWithProviderExtensionInDirectory", "args": { "durationMS": 1.8418999910354614, "detail": ".cpp C:\\Program Files\\Unity\\Hub\\Editor\\2020.3.18f1\\Editor\\Data\\il2cpp\\external\\bdwgc" } },
{ "pid": 1, "tid": 57, "ts": 170354.79736328125, "dur": 5909.39998626709, "ph": "X", "name": "HashOfAllFilesWithProviderExtensionInDirectory", "args": { "durationMS": 5.90939998626709, "detail": ".c C:\\Program Files\\Unity\\Hub\\Editor\\2020.3.18f1\\Editor\\Data\\il2cpp\\external\\bdwgc" } },
{ "pid": 1, "tid": 58, "ph": "M", "name": "thread_name", "args": { "name": "" } },
{ "pid": 1, "tid": 58, "ts": 168567.7947998047, "dur": 980.0000190734863, "ph": "X", "name": "FileHashProvider.Initialize", "args": { "durationMS": 0.9800000190734863, "detail": "C:\\Program Files\\Unity\\Hub\\Editor\\2020.3.18f1\\Editor\\Data\\il2cpp\\libil2cpp\\codegen" } },
{ "pid": 1, "tid": 58, "ts": 168571.4111328125, "dur": 551.5999794006348, "ph": "X", "name": "HashOfAllFilesWithProviderExtensionInDirectory", "args": { "durationMS": 0.5515999794006348, "detail": ".cpp C:\\Program Files\\Unity\\Hub\\Editor\\2020.3.18f1\\Editor\\Data\\il2cpp\\libil2cpp\\codegen" } },
{ "pid": 1, "tid": 58, "ts": 169125.79345703125, "dur": 421.00000381469727, "ph": "X", "name": "HashOfAllFilesWithProviderExtensionInDirectory", "args": { "durationMS": 0.42100000381469727, "detail": ".c C:\\Program Files\\Unity\\Hub\\Editor\\2020.3.18f1\\Editor\\Data\\il2cpp\\libil2cpp\\codegen" } },
{ "pid": 1, "tid": 59, "ph": "M", "name": "thread_name", "args": { "name": "" } },
{ "pid": 1, "tid": 59, "ts": 168634.09423828125, "dur": 968.2999849319458, "ph": "X", "name": "FileHashProvider.Initialize", "args": { "durationMS": 0.9682999849319458, "detail": "C:\\Program Files\\Unity\\Hub\\Editor\\2020.3.18f1\\Editor\\Data\\il2cpp\\libil2cpp\\debugger" } },
{ "pid": 1, "tid": 59, "ts": 168637.58850097656, "dur": 521.0999846458435, "ph": "X", "name": "HashOfAllFilesWithProviderExtensionInDirectory", "args": { "durationMS": 0.5210999846458435, "detail": ".cpp C:\\Program Files\\Unity\\Hub\\Editor\\2020.3.18f1\\Editor\\Data\\il2cpp\\libil2cpp\\debugger" } },
{ "pid": 1, "tid": 59, "ts": 169166.68701171875, "dur": 434.3999922275543, "ph": "X", "name": "HashOfAllFilesWithProviderExtensionInDirectory", "args": { "durationMS": 0.4343999922275543, "detail": ".c C:\\Program Files\\Unity\\Hub\\Editor\\2020.3.18f1\\Editor\\Data\\il2cpp\\libil2cpp\\debugger" } },
{ "pid": 1, "tid": 60, "ph": "M", "name": "thread_name", "args": { "name": "" } },
{ "pid": 1, "tid": 60, "ts": 168703.9031982422, "dur": 1398.3999490737915, "ph": "X", "name": "FileHashProvider.Initialize", "args": { "durationMS": 1.3983999490737915, "detail": "C:\\Program Files\\Unity\\Hub\\Editor\\2020.3.18f1\\Editor\\Data\\il2cpp\\libil2cpp\\gc" } },
{ "pid": 1, "tid": 60, "ts": 168707.3974609375, "dur": 803.9000034332275, "ph": "X", "name": "HashOfAllFilesWithProviderExtensionInDirectory", "args": { "durationMS": 0.8039000034332275, "detail": ".cpp C:\\Program Files\\Unity\\Hub\\Editor\\2020.3.18f1\\Editor\\Data\\il2cpp\\libil2cpp\\gc" } },
{ "pid": 1, "tid": 60, "ts": 169515.0909423828, "dur": 578.1999826431274, "ph": "X", "name": "HashOfAllFilesWithProviderExtensionInDirectory", "args": { "durationMS": 0.5781999826431274, "detail": ".c C:\\Program Files\\Unity\\Hub\\Editor\\2020.3.18f1\\Editor\\Data\\il2cpp\\libil2cpp\\gc" } },
{ "pid": 1, "tid": 61, "ph": "M", "name": "thread_name", "args": { "name": "" } },
{ "pid": 1, "tid": 61, "ts": 168783.59985351562, "dur": 11052.000045776367, "ph": "X", "name": "FileHashProvider.Initialize", "args": { "durationMS": 11.052000045776367, "detail": "C:\\Program Files\\Unity\\Hub\\Editor\\2020.3.18f1\\Editor\\Data\\il2cpp\\libil2cpp\\icalls" } },
{ "pid": 1, "tid": 61, "ts": 168787.3077392578, "dur": 9260.499954223633, "ph": "X", "name": "HashOfAllFilesWithProviderExtensionInDirectory", "args": { "durationMS": 9.260499954223633, "detail": ".cpp C:\\Program Files\\Unity\\Hub\\Editor\\2020.3.18f1\\Editor\\Data\\il2cpp\\libil2cpp\\icalls" } },
{ "pid": 1, "tid": 61, "ts": 178050.39978027344, "dur": 1775.2000093460083, "ph": "X", "name": "HashOfAllFilesWithProviderExtensionInDirectory", "args": { "durationMS": 1.7752000093460083, "detail": ".c C:\\Program Files\\Unity\\Hub\\Editor\\2020.3.18f1\\Editor\\Data\\il2cpp\\libil2cpp\\icalls" } },
{ "pid": 1, "tid": 62, "ph": "M", "name": "thread_name", "args": { "name": "" } },
{ "pid": 1, "tid": 62, "ts": 168859.60388183594, "dur": 1875, "ph": "X", "name": "FileHashProvider.Initialize", "args": { "durationMS": 1.875, "detail": "C:\\Program Files\\Unity\\Hub\\Editor\\2020.3.18f1\\Editor\\Data\\il2cpp\\libil2cpp\\metadata" } },
{ "pid": 1, "tid": 62, "ts": 168863.49487304688, "dur": 1343.7000513076782, "ph": "X", "name": "HashOfAllFilesWithProviderExtensionInDirectory", "args": { "durationMS": 1.3437000513076782, "detail": ".cpp C:\\Program Files\\Unity\\Hub\\Editor\\2020.3.18f1\\Editor\\Data\\il2cpp\\libil2cpp\\metadata" } },
{ "pid": 1, "tid": 62, "ts": 170209.3963623047, "dur": 523.6999988555908, "ph": "X", "name": "HashOfAllFilesWithProviderExtensionInDirectory", "args": { "durationMS": 0.5236999988555908, "detail": ".c C:\\Program Files\\Unity\\Hub\\Editor\\2020.3.18f1\\Editor\\Data\\il2cpp\\libil2cpp\\metadata" } },
{ "pid": 1, "tid": 63, "ph": "M", "name": "thread_name", "args": { "name": "" } },
{ "pid": 1, "tid": 63, "ts": 169042.20581054688, "dur": 1819.8000192642212, "ph": "X", "name": "FileHashProvider.Initialize", "args": { "durationMS": 1.8198000192642212, "detail": "C:\\Program Files\\Unity\\Hub\\Editor\\2020.3.18f1\\Editor\\Data\\il2cpp\\libil2cpp\\mono" } },
{ "pid": 1, "tid": 63, "ts": 169047.30224609375, "dur": 1273.6999988555908, "ph": "X", "name": "HashOfAllFilesWithProviderExtensionInDirectory", "args": { "durationMS": 1.2736999988555908, "detail": ".cpp C:\\Program Files\\Unity\\Hub\\Editor\\2020.3.18f1\\Editor\\Data\\il2cpp\\libil2cpp\\mono" } },
{ "pid": 1, "tid": 63, "ts": 170323.4100341797, "dur": 537.5999808311462, "ph": "X", "name": "HashOfAllFilesWithProviderExtensionInDirectory", "args": { "durationMS": 0.5375999808311462, "detail": ".c C:\\Program Files\\Unity\\Hub\\Editor\\2020.3.18f1\\Editor\\Data\\il2cpp\\libil2cpp\\mono" } },
{ "pid": 1, "tid": 64, "ph": "M", "name": "thread_name", "args": { "name": "" } },
{ "pid": 1, "tid": 64, "ts": 169107.40661621094, "dur": 10847.900390625, "ph": "X", "name": "FileHashProvider.Initialize", "args": { "durationMS": 10.847900390625, "detail": "C:\\Program Files\\Unity\\Hub\\Editor\\2020.3.18f1\\Editor\\Data\\il2cpp\\libil2cpp\\os" } },
{ "pid": 1, "tid": 64, "ts": 169112.9913330078, "dur": 10034.099578857422, "ph": "X", "name": "HashOfAllFilesWithProviderExtensionInDirectory", "args": { "durationMS": 10.034099578857422, "detail": ".cpp C:\\Program Files\\Unity\\Hub\\Editor\\2020.3.18f1\\Editor\\Data\\il2cpp\\libil2cpp\\os" } },
{ "pid": 1, "tid": 64, "ts": 179149.79553222656, "dur": 794.2000031471252, "ph": "X", "name": "HashOfAllFilesWithProviderExtensionInDirectory", "args": { "durationMS": 0.7942000031471252, "detail": ".c C:\\Program Files\\Unity\\Hub\\Editor\\2020.3.18f1\\Editor\\Data\\il2cpp\\libil2cpp\\os" } },
{ "pid": 1, "tid": 65, "ph": "M", "name": "thread_name", "args": { "name": "" } },
{ "pid": 1, "tid": 65, "ts": 169190.68908691406, "dur": 2139.400005340576, "ph": "X", "name": "FileHashProvider.Initialize", "args": { "durationMS": 2.139400005340576, "detail": "C:\\Program Files\\Unity\\Hub\\Editor\\2020.3.18f1\\Editor\\Data\\il2cpp\\libil2cpp\\utils" } },
{ "pid": 1, "tid": 65, "ts": 169194.9920654297, "dur": 1589.4999504089355, "ph": "X", "name": "HashOfAllFilesWithProviderExtensionInDirectory", "args": { "durationMS": 1.5894999504089355, "detail": ".cpp C:\\Program Files\\Unity\\Hub\\Editor\\2020.3.18f1\\Editor\\Data\\il2cpp\\libil2cpp\\utils" } },
{ "pid": 1, "tid": 65, "ts": 170788.29956054688, "dur": 540.4000282287598, "ph": "X", "name": "HashOfAllFilesWithProviderExtensionInDirectory", "args": { "durationMS": 0.5404000282287598, "detail": ".c C:\\Program Files\\Unity\\Hub\\Editor\\2020.3.18f1\\Editor\\Data\\il2cpp\\libil2cpp\\utils" } },
{ "pid": 1, "tid": 66, "ph": "M", "name": "thread_name", "args": { "name": "" } },
{ "pid": 1, "tid": 66, "ts": 169301.89514160156, "dur": 4026.599884033203, "ph": "X", "name": "FileHashProvider.Initialize", "args": { "durationMS": 4.026599884033203, "detail": "C:\\Program Files\\Unity\\Hub\\Editor\\2020.3.18f1\\Editor\\Data\\il2cpp\\libil2cpp\\vm" } },
{ "pid": 1, "tid": 66, "ts": 169307.40356445312, "dur": 3701.4000415802, "ph": "X", "name": "HashOfAllFilesWithProviderExtensionInDirectory", "args": { "durationMS": 3.7014000415802, "detail": ".cpp C:\\Program Files\\Unity\\Hub\\Editor\\2020.3.18f1\\Editor\\Data\\il2cpp\\libil2cpp\\vm" } },
{ "pid": 1, "tid": 67, "ph": "M", "name": "thread_name", "args": { "name": "" } },
{ "pid": 1, "tid": 67, "ts": 169448.2879638672, "dur": 1858.7000370025635, "ph": "X", "name": "FileHashProvider.Initialize", "args": { "durationMS": 1.8587000370025635, "detail": "C:\\Program Files\\Unity\\Hub\\Editor\\2020.3.18f1\\Editor\\Data\\il2cpp\\libil2cpp\\vm-utils" } },
{ "pid": 1, "tid": 67, "ts": 169453.2012939453, "dur": 1265.4000520706177, "ph": "X", "name": "HashOfAllFilesWithProviderExtensionInDirectory", "args": { "durationMS": 1.2654000520706177, "detail": ".cpp C:\\Program Files\\Unity\\Hub\\Editor\\2020.3.18f1\\Editor\\Data\\il2cpp\\libil2cpp\\vm-utils" } },
{ "pid": 1, "tid": 67, "ts": 170720.79467773438, "dur": 584.9000215530396, "ph": "X", "name": "HashOfAllFilesWithProviderExtensionInDirectory", "args": { "durationMS": 0.5849000215530396, "detail": ".c C:\\Program Files\\Unity\\Hub\\Editor\\2020.3.18f1\\Editor\\Data\\il2cpp\\libil2cpp\\vm-utils" } },
{ "pid": 1, "tid": 105, "ph": "M", "name": "thread_name", "args": { "name": "" } },
{ "pid": 1, "tid": 105, "ts": 174407.89794921875, "dur": 485.39999127388, "ph": "X", "name": "HashOfFile", "args": { "durationMS": 0.48539999127388, "detail": "C:\\Program Files\\Unity\\Hub\\Editor\\2020.3.18f1\\Editor\\Data\\il2cpp\\external\\bdwgc\\os_dep.c" } },
{ "pid": 1, "tid": 131, "ph": "M", "name": "thread_name", "args": { "name": "" } },
{ "pid": 1, "tid": 131, "ts": 191292.99926757812, "dur": 19399.799346923828, "ph": "X", "name": "HashCompilerInvocation", "args": { "durationMS": 19.399799346923828, "detail": "mscorlib6.cpp" } },
{ "pid": 1, "tid": 131, "ts": 211199.49340820312, "dur": 8880.000114440918, "ph": "X", "name": "HashCompilerInvocation", "args": { "durationMS": 8.880000114440918, "detail": "mscorlib7.cpp" } },
{ "pid": 1, "tid": 131, "ts": 220100.81481933594, "dur": 6509.6001625061035, "ph": "X", "name": "HashCompilerInvocation", "args": { "durationMS": 6.5096001625061035, "detail": "Assembly-CSharp.cpp" } },
{ "pid": 1, "tid": 131, "ts": 226634.5977783203, "dur": 4421.899795532227, "ph": "X", "name": "HashCompilerInvocation", "args": { "durationMS": 4.421899795532227, "detail": "DOTween2.cpp" } },
{ "pid": 1, "tid": 131, "ts": 231081.298828125, "dur": 2565.700054168701, "ph": "X", "name": "HashCompilerInvocation", "args": { "durationMS": 2.565700054168701, "detail": "UnityEngine.AndroidJNIModule_Attr.cpp" } },
{ "pid": 1, "tid": 131, "ts": 233671.49353027344, "dur": 2160.799980163574, "ph": "X", "name": "HashCompilerInvocation", "args": { "durationMS": 2.160799980163574, "detail": "UnityEngine.SharedInternalsModule.cpp" } },
{ "pid": 1, "tid": 131, "ts": 235861.29760742188, "dur": 2049.999952316284, "ph": "X", "name": "HashCompilerInvocation", "args": { "durationMS": 2.049999952316284, "detail": "UnityEngine.AudioModule_Attr.cpp" } },
{ "pid": 1, "tid": 131, "ts": 237930.908203125, "dur": 11130.999565124512, "ph": "X", "name": "HashCompilerInvocation", "args": { "durationMS": 11.130999565124512, "detail": "deflate.c" } },
{ "pid": 1, "tid": 131, "ts": 249090.68298339844, "dur": 1488.800048828125, "ph": "X", "name": "HashCompilerInvocation", "args": { "durationMS": 1.488800048828125, "detail": "UnityEngine.TilemapModule_CodeGen.c" } },
{ "pid": 1, "tid": 131, "ts": 250605.01098632812, "dur": 2139.400005340576, "ph": "X", "name": "HashCompilerInvocation", "args": { "durationMS": 2.139400005340576, "detail": "uncompr.c" } },
{ "pid": 1, "tid": 131, "ts": 252768.89038085938, "dur": 1570.199966430664, "ph": "X", "name": "HashCompilerInvocation", "args": { "durationMS": 1.570199966430664, "detail": "gzclose.c" } },
{ "pid": 1, "tid": 131, "ts": 254363.38806152344, "dur": 1273.900032043457, "ph": "X", "name": "HashCompilerInvocation", "args": { "durationMS": 1.273900032043457, "detail": "Il2CppGenericComDefinitions14.cpp" } },
{ "pid": 1, "tid": 131, "ts": 255663.10119628906, "dur": 1966.5000438690186, "ph": "X", "name": "HashCompilerInvocation", "args": { "durationMS": 1.9665000438690186, "detail": "Il2CppGenericComDefinitions8.cpp" } },
{ "pid": 1, "tid": 118, "ph": "M", "name": "thread_name", "args": { "name": "" } },
{ "pid": 1, "tid": 118, "ts": 191298.20251464844, "dur": 27981.10008239746, "ph": "X", "name": "HashCompilerInvocation", "args": { "durationMS": 27.98110008239746, "detail": "Il2CppCCalculateTypeValues.cpp" } },
{ "pid": 1, "tid": 118, "ts": 219305.19104003906, "dur": 6856.6999435424805, "ph": "X", "name": "HashCompilerInvocation", "args": { "durationMS": 6.8566999435424805, "detail": "UnityEngine.CoreModule1.cpp" } },
{ "pid": 1, "tid": 118, "ts": 226187.28637695312, "dur": 4510.6000900268555, "ph": "X", "name": "HashCompilerInvocation", "args": { "durationMS": 4.5106000900268555, "detail": "System1.cpp" } },
{ "pid": 1, "tid": 118, "ts": 230722.99194335938, "dur": 3259.000062942505, "ph": "X", "name": "HashCompilerInvocation", "args": { "durationMS": 3.259000062942505, "detail": "UnityEngine.UI_Attr.cpp" } },
{ "pid": 1, "tid": 118, "ts": 234003.50952148438, "dur": 2618.5998916625977, "ph": "X", "name": "HashCompilerInvocation", "args": { "durationMS": 2.6185998916625977, "detail": "Il2CppInteropDataTable.cpp" } },
{ "pid": 1, "tid": 118, "ts": 236646.6064453125, "dur": 2536.799907684326, "ph": "X", "name": "HashCompilerInvocation", "args": { "durationMS": 2.536799907684326, "detail": "System.Xml.cpp" } },
{ "pid": 1, "tid": 118, "ts": 239210.693359375, "dur": 1838.2999897003174, "ph": "X", "name": "HashCompilerInvocation", "args": { "durationMS": 1.8382999897003174, "detail": "Assembly-CSharp_Attr.cpp" } },
{ "pid": 1, "tid": 118, "ts": 241075.79040527344, "dur": 8597.999572753906, "ph": "X", "name": "HashCompilerInvocation", "args": { "durationMS": 8.597999572753906, "detail": "gzwrite.c" } },
{ "pid": 1, "tid": 118, "ts": 249695.58715820312, "dur": 1294.600009918213, "ph": "X", "name": "HashCompilerInvocation", "args": { "durationMS": 1.294600009918213, "detail": "UnityEngine_Attr.cpp" } },
{ "pid": 1, "tid": 118, "ts": 251012.51220703125, "dur": 2792.799949645996, "ph": "X", "name": "HashCompilerInvocation", "args": { "durationMS": 2.792799949645996, "detail": "Lump_libil2cpp_utils.cpp" } },
{ "pid": 1, "tid": 118, "ts": 253828.50646972656, "dur": 1710.800051689148, "ph": "X", "name": "HashCompilerInvocation", "args": { "durationMS": 1.710800051689148, "detail": "Il2CppGenericComDefinitions12.cpp" } },
{ "pid": 1, "tid": 118, "ts": 255562.9119873047, "dur": 1716.1999940872192, "ph": "X", "name": "HashCompilerInvocation", "args": { "durationMS": 1.7161999940872192, "detail": "Il2CppGenericComDefinitions6.cpp" } },
{ "pid": 1, "tid": 127, "ph": "M", "name": "thread_name", "args": { "name": "" } },
{ "pid": 1, "tid": 127, "ts": 191302.6123046875, "dur": 19388.498306274414, "ph": "X", "name": "HashCompilerInvocation", "args": { "durationMS": 19.388498306274414, "detail": "UnityEngine.CoreModule.cpp" } },
{ "pid": 1, "tid": 127, "ts": 211201.20239257812, "dur": 8224.39956665039, "ph": "X", "name": "HashCompilerInvocation", "args": { "durationMS": 8.22439956665039, "detail": "UnityEngine.UI.cpp" } },
{ "pid": 1, "tid": 127, "ts": 219452.20947265625, "dur": 15950.400352478027, "ph": "X", "name": "HashCompilerInvocation", "args": { "durationMS": 15.950400352478027, "detail": "UnityEngine.UI2.cpp" } },
{ "pid": 1, "tid": 127, "ts": 235428.5125732422, "dur": 2529.9999713897705, "ph": "X", "name": "HashCompilerInvocation", "args": { "durationMS": 2.5299999713897705, "detail": "Mono.Security.cpp" } },
{ "pid": 1, "tid": 127, "ts": 237986.6943359375, "dur": 1840.89994430542, "ph": "X", "name": "HashCompilerInvocation", "args": { "durationMS": 1.84089994430542, "detail": "System.Core_Attr.cpp" } },
{ "pid": 1, "tid": 127, "ts": 239853.21044921875, "dur": 7770.899772644043, "ph": "X", "name": "HashCompilerInvocation", "args": { "durationMS": 7.770899772644043, "detail": "xamarin_getifaddrs.c" } },
{ "pid": 1, "tid": 127, "ts": 247656.60095214844, "dur": 2070.1000690460205, "ph": "X", "name": "HashCompilerInvocation", "args": { "durationMS": 2.0701000690460205, "detail": "UnityEngine.GridModule.cpp" } },
{ "pid": 1, "tid": 127, "ts": 249751.40380859375, "dur": 2066.499948501587, "ph": "X", "name": "HashCompilerInvocation", "args": { "durationMS": 2.066499948501587, "detail": "System.Xml_CodeGen.c" } },
{ "pid": 1, "tid": 127, "ts": 251843.7957763672, "dur": 3878.499984741211, "ph": "X", "name": "HashCompilerInvocation", "args": { "durationMS": 3.878499984741211, "detail": "krait_signal_handler.c" } },
{ "pid": 1, "tid": 127, "ts": 255749.81689453125, "dur": 2101.7000675201416, "ph": "X", "name": "HashCompilerInvocation", "args": { "durationMS": 2.1017000675201416, "detail": "Lump_libil2cpp_debugger.cpp" } },
{ "pid": 1, "tid": 117, "ph": "M", "name": "thread_name", "args": { "name": "" } },
{ "pid": 1, "tid": 117, "ts": 191305.60302734375, "dur": 28591.19987487793, "ph": "X", "name": "HashCompilerInvocation", "args": { "durationMS": 28.59119987487793, "detail": "Il2CppCCalculateFieldValues.cpp" } },
{ "pid": 1, "tid": 117, "ts": 219920.41015625, "dur": 6555.3998947143555, "ph": "X", "name": "HashCompilerInvocation", "args": { "durationMS": 6.5553998947143555, "detail": "GenericMethods.cpp" } },
{ "pid": 1, "tid": 117, "ts": 226513.3056640625, "dur": 4419.300079345703, "ph": "X", "name": "HashCompilerInvocation", "args": { "durationMS": 4.419300079345703, "detail": "System2.cpp" } },
{ "pid": 1, "tid": 117, "ts": 230958.80126953125, "dur": 2800.8999824523926, "ph": "X", "name": "HashCompilerInvocation", "args": { "durationMS": 2.8008999824523926, "detail": "UnityEngine.AnimationModule.cpp" } },
{ "pid": 1, "tid": 117, "ts": 233789.1082763672, "dur": 2858.099937438965, "ph": "X", "name": "HashCompilerInvocation", "args": { "durationMS": 2.858099937438965, "detail": "Il2CppGenericMethodDefinitions.c" } },
{ "pid": 1, "tid": 117, "ts": 236669.58618164062, "dur": 2283.799886703491, "ph": "X", "name": "HashCompilerInvocation", "args": { "durationMS": 2.283799886703491, "detail": "UnityEngine.AndroidJNIModule_CodeGen.c" } },
{ "pid": 1, "tid": 117, "ts": 239016.49475097656, "dur": 1985.0000143051147, "ph": "X", "name": "HashCompilerInvocation", "args": { "durationMS": 1.9850000143051147, "detail": "System.Configuration_Attr.cpp" } },
{ "pid": 1, "tid": 117, "ts": 241028.3966064453, "dur": 9038.800239562988, "ph": "X", "name": "HashCompilerInvocation", "args": { "durationMS": 9.038800239562988, "detail": "UnityEngine.Physics2DModule_CodeGen.c" } },
{ "pid": 1, "tid": 117, "ts": 250092.01049804688, "dur": 2706.5999507904053, "ph": "X", "name": "HashCompilerInvocation", "args": { "durationMS": 2.7065999507904053, "detail": "Mono.Security_CodeGen.c" } },
{ "pid": 1, "tid": 117, "ts": 252821.80786132812, "dur": 1891.3999795913696, "ph": "X", "name": "HashCompilerInvocation", "args": { "durationMS": 1.8913999795913696, "detail": "il2cpp-benchmark-support.cpp" } },
{ "pid": 1, "tid": 117, "ts": 254749.89318847656, "dur": 1567.8000450134277, "ph": "X", "name": "HashCompilerInvocation", "args": { "durationMS": 1.5678000450134277, "detail": "Il2CppGenericComDefinitions17.cpp" } },
{ "pid": 1, "tid": 121, "ph": "M", "name": "thread_name", "args": { "name": "" } },
{ "pid": 1, "tid": 121, "ts": 191310.1043701172, "dur": 19890.399932861328, "ph": "X", "name": "HashCompilerInvocation", "args": { "durationMS": 19.890399932861328, "detail": "Generics2.cpp" } },
{ "pid": 1, "tid": 121, "ts": 211224.99084472656, "dur": 8530.400276184082, "ph": "X", "name": "HashCompilerInvocation", "args": { "durationMS": 8.530400276184082, "detail": "Generics.cpp" } },
{ "pid": 1, "tid": 121, "ts": 219787.70446777344, "dur": 7065.700054168701, "ph": "X", "name": "HashCompilerInvocation", "args": { "durationMS": 7.065700054168701, "detail": "UnityEngine.UI1.cpp" } },
{ "pid": 1, "tid": 121, "ts": 226905.91430664062, "dur": 3038.5000705718994, "ph": "X", "name": "HashCompilerInvocation", "args": { "durationMS": 3.0385000705718994, "detail": "UnityEngine.UI_CodeGen.c" } },
{ "pid": 1, "tid": 121, "ts": 229959.80834960938, "dur": 2816.0998821258545, "ph": "X", "name": "HashCompilerInvocation", "args": { "durationMS": 2.8160998821258545, "detail": "UnityEngine.CoreModule_CodeGen.c" } },
{ "pid": 1, "tid": 121, "ts": 232803.40576171875, "dur": 1794.9999570846558, "ph": "X", "name": "HashCompilerInvocation", "args": { "durationMS": 1.7949999570846558, "detail": "UnityEngine.IMGUIModule_Attr.cpp" } },
{ "pid": 1, "tid": 121, "ts": 234623.68774414062, "dur": 2147.900104522705, "ph": "X", "name": "HashCompilerInvocation", "args": { "durationMS": 2.147900104522705, "detail": "UnityEngine.InputLegacyModule.cpp" } },
{ "pid": 1, "tid": 121, "ts": 236795.80688476562, "dur": 2225.8999347686768, "ph": "X", "name": "HashCompilerInvocation", "args": { "durationMS": 2.2258999347686768, "detail": "UnityEngine.TextRenderingModule_Attr.cpp" } },
{ "pid": 1, "tid": 121, "ts": 239044.70825195312, "dur": 1969.4000482559204, "ph": "X", "name": "HashCompilerInvocation", "args": { "durationMS": 1.9694000482559204, "detail": "trees.c" } },
{ "pid": 1, "tid": 121, "ts": 241034.912109375, "dur": 9035.699844360352, "ph": "X", "name": "HashCompilerInvocation", "args": { "durationMS": 9.035699844360352, "detail": "System.Core_CodeGen.c" } },
{ "pid": 1, "tid": 121, "ts": 250091.90368652344, "dur": 2498.199939727783, "ph": "X", "name": "HashCompilerInvocation", "args": { "durationMS": 2.498199939727783, "detail": "adler32.c" } },
{ "pid": 1, "tid": 121, "ts": 252615.98205566406, "dur": 2806.9000244140625, "ph": "X", "name": "HashCompilerInvocation", "args": { "durationMS": 2.8069000244140625, "detail": "Lump_libil2cpp_mono.cpp" } },
{ "pid": 1, "tid": 121, "ts": 255447.0977783203, "dur": 1885.699987411499, "ph": "X", "name": "HashCompilerInvocation", "args": { "durationMS": 1.885699987411499, "detail": "Il2CppGenericComDefinitions3.cpp" } },
{ "pid": 1, "tid": 125, "ph": "M", "name": "thread_name", "args": { "name": "" } },
{ "pid": 1, "tid": 125, "ts": 191313.4002685547, "dur": 19512.19940185547, "ph": "X", "name": "HashCompilerInvocation", "args": { "durationMS": 19.51219940185547, "detail": "mscorlib.cpp" } },
{ "pid": 1, "tid": 125, "ts": 211207.1075439453, "dur": 8771.80004119873, "ph": "X", "name": "HashCompilerInvocation", "args": { "durationMS": 8.77180004119873, "detail": "Generics7.cpp" } },
{ "pid": 1, "tid": 125, "ts": 219999.89318847656, "dur": 6492.499828338623, "ph": "X", "name": "HashCompilerInvocation", "args": { "durationMS": 6.492499828338623, "detail": "Il2CppGenericMethodPointerTable.cpp" } },
{ "pid": 1, "tid": 125, "ts": 226516.4031982422, "dur": 4270.999908447266, "ph": "X", "name": "HashCompilerInvocation", "args": { "durationMS": 4.270999908447266, "detail": "GenericMethods4.cpp" } },
{ "pid": 1, "tid": 125, "ts": 230814.8956298828, "dur": 2759.0999603271484, "ph": "X", "name": "HashCompilerInvocation", "args": { "durationMS": 2.7590999603271484, "detail": "Il2CppCCTypeValuesTable.cpp" } },
{ "pid": 1, "tid": 125, "ts": 233604.99572753906, "dur": 2318.7999725341797, "ph": "X", "name": "HashCompilerInvocation", "args": { "durationMS": 2.3187999725341797, "detail": "UnityEngine.Physics2DModule.cpp" } },
{ "pid": 1, "tid": 125, "ts": 235942.9168701172, "dur": 2168.299913406372, "ph": "X", "name": "HashCompilerInvocation", "args": { "durationMS": 2.168299913406372, "detail": "UnityEngine.TilemapModule_Attr.cpp" } },
{ "pid": 1, "tid": 125, "ts": 238135.80322265625, "dur": 10713.10043334961, "ph": "X", "name": "HashCompilerInvocation", "args": { "durationMS": 10.71310043334961, "detail": "UnityEngine.IMGUIModule_CodeGen.c" } },
{ "pid": 1, "tid": 125, "ts": 248873.9013671875, "dur": 1959.8000049591064, "ph": "X", "name": "HashCompilerInvocation", "args": { "durationMS": 1.9598000049591064, "detail": "inftrees.c" } },
{ "pid": 1, "tid": 125, "ts": 250857.80334472656, "dur": 2763.400077819824, "ph": "X", "name": "HashCompilerInvocation", "args": { "durationMS": 2.763400077819824, "detail": "Lump_libil2cpp_metadata.cpp" } },
{ "pid": 1, "tid": 125, "ts": 253651.50451660156, "dur": 1810.9999895095825, "ph": "X", "name": "HashCompilerInvocation", "args": { "durationMS": 1.8109999895095825, "detail": "Il2CppGenericComDefinitions10.cpp" } },
{ "pid": 1, "tid": 125, "ts": 255489.41040039062, "dur": 2032.3998928070068, "ph": "X", "name": "HashCompilerInvocation", "args": { "durationMS": 2.032399892807007, "detail": "Il2CppGenericComDefinitions4.cpp" } },
{ "pid": 1, "tid": 124, "ph": "M", "name": "thread_name", "args": { "name": "" } },
{ "pid": 1, "tid": 124, "ts": 191317.00134277344, "dur": 19562.999725341797, "ph": "X", "name": "HashCompilerInvocation", "args": { "durationMS": 19.562999725341797, "detail": "Il2CppTypeDefinitions.c" } },
{ "pid": 1, "tid": 124, "ts": 211221.29821777344, "dur": 8842.399597167969, "ph": "X", "name": "HashCompilerInvocation", "args": { "durationMS": 8.842399597167969, "detail": "Generics1.cpp" } },
{ "pid": 1, "tid": 124, "ts": 220087.18872070312, "dur": 6578.700065612793, "ph": "X", "name": "HashCompilerInvocation", "args": { "durationMS": 6.578700065612793, "detail": "mscorlib11.cpp" } },
{ "pid": 1, "tid": 124, "ts": 226695.98388671875, "dur": 4417.300224304199, "ph": "X", "name": "HashCompilerInvocation", "args": { "durationMS": 4.417300224304199, "detail": "UnityEngine.AndroidJNIModule.cpp" } },
{ "pid": 1, "tid": 124, "ts": 231134.2010498047, "dur": 2654.7999382019043, "ph": "X", "name": "HashCompilerInvocation", "args": { "durationMS": 2.6547999382019043, "detail": "UnityEngine.UIModule.cpp" } },
{ "pid": 1, "tid": 124, "ts": 233812.89672851562, "dur": 2816.999912261963, "ph": "X", "name": "HashCompilerInvocation", "args": { "durationMS": 2.816999912261963, "detail": "UnityEngine.PhysicsModule_Attr.cpp" } },
{ "pid": 1, "tid": 124, "ts": 236654.89196777344, "dur": 2257.2999000549316, "ph": "X", "name": "HashCompilerInvocation", "args": { "durationMS": 2.2572999000549316, "detail": "Assembly-CSharp-firstpass_CodeGen.c" } },
{ "pid": 1, "tid": 124, "ts": 238936.70654296875, "dur": 1851.7999649047852, "ph": "X", "name": "HashCompilerInvocation", "args": { "durationMS": 1.8517999649047852, "detail": "System.Configuration.cpp" } },
{ "pid": 1, "tid": 124, "ts": 240901.1993408203, "dur": 9435.700416564941, "ph": "X", "name": "HashCompilerInvocation", "args": { "durationMS": 9.435700416564941, "detail": "UnityEngine.PhysicsModule_CodeGen.c" } },
{ "pid": 1, "tid": 124, "ts": 250363.38806152344, "dur": 2663.800001144409, "ph": "X", "name": "HashCompilerInvocation", "args": { "durationMS": 2.663800001144409, "detail": "Il2CppCodeRegistration.cpp" } },
{ "pid": 1, "tid": 124, "ts": 253050.59814453125, "dur": 1918.2000160217285, "ph": "X", "name": "HashCompilerInvocation", "args": { "durationMS": 1.9182000160217285, "detail": "UnityEngine_CodeGen.c" } },
{ "pid": 1, "tid": 124, "ts": 254991.2109375, "dur": 1458.0999612808228, "ph": "X", "name": "HashCompilerInvocation", "args": { "durationMS": 1.4580999612808228, "detail": "Il2CppGenericComDefinitions19.cpp" } },
{ "pid": 1, "tid": 123, "ph": "M", "name": "thread_name", "args": { "name": "" } },
{ "pid": 1, "tid": 123, "ts": 191318.69506835938, "dur": 19628.20053100586, "ph": "X", "name": "HashCompilerInvocation", "args": { "durationMS": 19.62820053100586, "detail": "mscorlib9.cpp" } },
{ "pid": 1, "tid": 123, "ts": 211227.4932861328, "dur": 8794.699668884277, "ph": "X", "name": "HashCompilerInvocation", "args": { "durationMS": 8.794699668884277, "detail": "DOTween1.cpp" } },
{ "pid": 1, "tid": 123, "ts": 220046.11206054688, "dur": 6573.400020599365, "ph": "X", "name": "HashCompilerInvocation", "args": { "durationMS": 6.573400020599365, "detail": "Assembly-CSharp-firstpass.cpp" } },
{ "pid": 1, "tid": 123, "ts": 226647.5067138672, "dur": 4126.200199127197, "ph": "X", "name": "HashCompilerInvocation", "args": { "durationMS": 4.126200199127197, "detail": "mscorlib_Attr.cpp" } },
{ "pid": 1, "tid": 123, "ts": 230800.4150390625, "dur": 2657.7999591827393, "ph": "X", "name": "HashCompilerInvocation", "args": { "durationMS": 2.6577999591827393, "detail": "DOTween_Attr.cpp" } },
{ "pid": 1, "tid": 123, "ts": 233488.31176757812, "dur": 2084.199905395508, "ph": "X", "name": "HashCompilerInvocation", "args": { "durationMS": 2.084199905395508, "detail": "Il2CppGenericClassTable.c" } },
{ "pid": 1, "tid": 123, "ts": 235596.8017578125, "dur": 2209.700107574463, "ph": "X", "name": "HashCompilerInvocation", "args": { "durationMS": 2.209700107574463, "detail": "Assembly-CSharp-firstpass_Attr.cpp" } },
{ "pid": 1, "tid": 123, "ts": 237826.99584960938, "dur": 11221.799850463867, "ph": "X", "name": "HashCompilerInvocation", "args": { "durationMS": 11.221799850463867, "detail": "UnityEngine.SpriteShapeModule_Attr.cpp" } },
{ "pid": 1, "tid": 123, "ts": 249075.98876953125, "dur": 1555.6000471115112, "ph": "X", "name": "HashCompilerInvocation", "args": { "durationMS": 1.5556000471115112, "detail": "inffast.c" } },
{ "pid": 1, "tid": 123, "ts": 250659.60693359375, "dur": 2271.1000442504883, "ph": "X", "name": "HashCompilerInvocation", "args": { "durationMS": 2.2711000442504883, "detail": "compress.c" } },
{ "pid": 1, "tid": 123, "ts": 252958.89282226562, "dur": 1692.7000284194946, "ph": "X", "name": "HashCompilerInvocation", "args": { "durationMS": 1.6927000284194946, "detail": "UnityEngine.SpriteShapeModule_CodeGen.c" } },
{ "pid": 1, "tid": 123, "ts": 254672.59216308594, "dur": 1757.699966430664, "ph": "X", "name": "HashCompilerInvocation", "args": { "durationMS": 1.757699966430664, "detail": "Il2CppGenericComDefinitions16.cpp" } },
{ "pid": 1, "tid": 122, "ph": "M", "name": "thread_name", "args": { "name": "" } },
{ "pid": 1, "tid": 122, "ts": 191321.99096679688, "dur": 19588.098526000977, "ph": "X", "name": "HashCompilerInvocation", "args": { "durationMS": 19.588098526000977, "detail": "mscorlib_CodeGen.c" } },
{ "pid": 1, "tid": 122, "ts": 211223.0987548828, "dur": 8717.599868774414, "ph": "X", "name": "HashCompilerInvocation", "args": { "durationMS": 8.717599868774414, "detail": "mscorlib5.cpp" } },
{ "pid": 1, "tid": 122, "ts": 219969.20776367188, "dur": 6818.299770355225, "ph": "X", "name": "HashCompilerInvocation", "args": { "durationMS": 6.818299770355225, "detail": "mscorlib12.cpp" } },
{ "pid": 1, "tid": 122, "ts": 226815.90270996094, "dur": 3530.900001525879, "ph": "X", "name": "HashCompilerInvocation", "args": { "durationMS": 3.530900001525879, "detail": "System3.cpp" } },
{ "pid": 1, "tid": 122, "ts": 230374.90844726562, "dur": 3257.6000690460205, "ph": "X", "name": "HashCompilerInvocation", "args": { "durationMS": 3.2576000690460205, "detail": "UnresolvedVirtualCallStubs.cpp" } },
{ "pid": 1, "tid": 122, "ts": 233655.91430664062, "dur": 2260.0998878479004, "ph": "X", "name": "HashCompilerInvocation", "args": { "durationMS": 2.2600998878479004, "detail": "Generics8.cpp" } },
{ "pid": 1, "tid": 122, "ts": 235937.68310546875, "dur": 2323.699951171875, "ph": "X", "name": "HashCompilerInvocation", "args": { "durationMS": 2.323699951171875, "detail": "UnityEngine.UIModule_Attr.cpp" } },
{ "pid": 1, "tid": 122, "ts": 238286.48376464844, "dur": 1900.5999565124512, "ph": "X", "name": "HashCompilerInvocation", "args": { "durationMS": 1.9005999565124512, "detail": "System.Xml_Attr.cpp" } },
{ "pid": 1, "tid": 122, "ts": 240214.99633789062, "dur": 9907.79972076416, "ph": "X", "name": "HashCompilerInvocation", "args": { "durationMS": 9.90779972076416, "detail": "Lump_libil2cpp_os.cpp" } },
{ "pid": 1, "tid": 122, "ts": 250145.5078125, "dur": 2415.4000282287598, "ph": "X", "name": "HashCompilerInvocation", "args": { "durationMS": 2.4154000282287598, "detail": "UnityEngine.SpriteShapeModule.cpp" } },
{ "pid": 1, "tid": 122, "ts": 252582.91625976562, "dur": 1665.5000448226929, "ph": "X", "name": "HashCompilerInvocation", "args": { "durationMS": 1.6655000448226929, "detail": "UnityEngine.cpp" } },
{ "pid": 1, "tid": 122, "ts": 254273.78845214844, "dur": 1391.3999795913696, "ph": "X", "name": "HashCompilerInvocation", "args": { "durationMS": 1.3913999795913696, "detail": "Il2CppGenericComDefinitions13.cpp" } },
{ "pid": 1, "tid": 122, "ts": 255689.19372558594, "dur": 1949.3999481201172, "ph": "X", "name": "HashCompilerInvocation", "args": { "durationMS": 1.9493999481201172, "detail": "Il2CppGenericComDefinitions9.cpp" } },
{ "pid": 1, "tid": 120, "ph": "M", "name": "thread_name", "args": { "name": "" } },
{ "pid": 1, "tid": 120, "ts": 191326.59912109375, "dur": 19773.500442504883, "ph": "X", "name": "HashCompilerInvocation", "args": { "durationMS": 19.773500442504883, "detail": "Generics3.cpp" } },
{ "pid": 1, "tid": 120, "ts": 211313.5986328125, "dur": 8414.899826049805, "ph": "X", "name": "HashCompilerInvocation", "args": { "durationMS": 8.414899826049805, "detail": "mscorlib16.cpp" } },
{ "pid": 1, "tid": 120, "ts": 219762.4053955078, "dur": 6978.300094604492, "ph": "X", "name": "HashCompilerInvocation", "args": { "durationMS": 6.978300094604492, "detail": "Generics4.cpp" } },
{ "pid": 1, "tid": 120, "ts": 226764.80102539062, "dur": 3507.4000358581543, "ph": "X", "name": "HashCompilerInvocation", "args": { "durationMS": 3.5074000358581543, "detail": "Il2CppGenericInstDefinitions.c" } },
{ "pid": 1, "tid": 120, "ts": 230296.81396484375, "dur": 3523.699998855591, "ph": "X", "name": "HashCompilerInvocation", "args": { "durationMS": 3.523699998855591, "detail": "char-conversions.cpp" } },
{ "pid": 1, "tid": 120, "ts": 233846.09985351562, "dur": 2920.5000400543213, "ph": "X", "name": "HashCompilerInvocation", "args": { "durationMS": 2.9205000400543213, "detail": "UnityEngine.Physics2DModule_Attr.cpp" } },
{ "pid": 1, "tid": 120, "ts": 236791.29028320312, "dur": 2489.9001121520996, "ph": "X", "name": "HashCompilerInvocation", "args": { "durationMS": 2.4899001121520996, "detail": "UnityEngine.AudioModule.cpp" } },
{ "pid": 1, "tid": 120, "ts": 239335.4034423828, "dur": 1698.4000205993652, "ph": "X", "name": "HashCompilerInvocation", "args": { "durationMS": 1.6984000205993652, "detail": "Mono.Security_Attr.cpp" } },
{ "pid": 1, "tid": 120, "ts": 241060.302734375, "dur": 9680.399894714355, "ph": "X", "name": "HashCompilerInvocation", "args": { "durationMS": 9.680399894714355, "detail": "Lump_libil2cpp_icalls.cpp" } },
{ "pid": 1, "tid": 120, "ts": 250761.5966796875, "dur": 1995.5999851226807, "ph": "X", "name": "HashCompilerInvocation", "args": { "durationMS": 1.9955999851226807, "detail": "UnityEngine.GridModule_CodeGen.c" } },
{ "pid": 1, "tid": 120, "ts": 252782.69958496094, "dur": 2292.099952697754, "ph": "X", "name": "HashCompilerInvocation", "args": { "durationMS": 2.292099952697754, "detail": "Lump_libil2cpp_gc.cpp" } },
{ "pid": 1, "tid": 120, "ts": 255101.10473632812, "dur": 1810.0999593734741, "ph": "X", "name": "HashCompilerInvocation", "args": { "durationMS": 1.8100999593734741, "detail": "Il2CppGenericComDefinitions2.cpp" } },
{ "pid": 1, "tid": 132, "ph": "M", "name": "thread_name", "args": { "name": "" } },
{ "pid": 1, "tid": 132, "ts": 191327.60620117188, "dur": 19363.500595092773, "ph": "X", "name": "HashCompilerInvocation", "args": { "durationMS": 19.363500595092773, "detail": "mscorlib4.cpp" } },
{ "pid": 1, "tid": 132, "ts": 211199.49340820312, "dur": 26554.59976196289, "ph": "X", "name": "HashCompilerInvocation", "args": { "durationMS": 26.55459976196289, "detail": "mscorlib2.cpp" } },
{ "pid": 1, "tid": 132, "ts": 237780.30395507812, "dur": 2075.200080871582, "ph": "X", "name": "HashCompilerInvocation", "args": { "durationMS": 2.075200080871582, "detail": "System_Attr.cpp" } },
{ "pid": 1, "tid": 132, "ts": 239887.48168945312, "dur": 7815.899848937988, "ph": "X", "name": "HashCompilerInvocation", "args": { "durationMS": 7.815899848937988, "detail": "UnityEngine.UIModule_CodeGen.c" } },
{ "pid": 1, "tid": 132, "ts": 247727.0965576172, "dur": 2194.7999000549316, "ph": "X", "name": "HashCompilerInvocation", "args": { "durationMS": 2.1947999000549316, "detail": "gzlib.c" } },
{ "pid": 1, "tid": 132, "ts": 249960.80017089844, "dur": 2180.0999641418457, "ph": "X", "name": "HashCompilerInvocation", "args": { "durationMS": 2.1800999641418457, "detail": "zutil.c" } },
{ "pid": 1, "tid": 132, "ts": 252164.81018066406, "dur": 1629.8999786376953, "ph": "X", "name": "HashCompilerInvocation", "args": { "durationMS": 1.6298999786376953, "detail": "Il2CppMetadataRegistration.c" } },
{ "pid": 1, "tid": 132, "ts": 253819.48852539062, "dur": 1704.5999765396118, "ph": "X", "name": "HashCompilerInvocation", "args": { "durationMS": 1.7045999765396118, "detail": "Il2CppGenericComDefinitions11.cpp" } },
{ "pid": 1, "tid": 132, "ts": 255549.01123046875, "dur": 1648.4999656677246, "ph": "X", "name": "HashCompilerInvocation", "args": { "durationMS": 1.6484999656677246, "detail": "Il2CppGenericComDefinitions5.cpp" } },
{ "pid": 1, "tid": 119, "ph": "M", "name": "thread_name", "args": { "name": "" } },
{ "pid": 1, "tid": 119, "ts": 191332.1990966797, "dur": 20142.301559448242, "ph": "X", "name": "HashCompilerInvocation", "args": { "durationMS": 20.142301559448242, "detail": "Il2CppInvokerTable.cpp" } },
{ "pid": 1, "tid": 119, "ts": 211495.10192871094, "dur": 8512.499809265137, "ph": "X", "name": "HashCompilerInvocation", "args": { "durationMS": 8.512499809265137, "detail": "mscorlib8.cpp" } },
{ "pid": 1, "tid": 119, "ts": 220032.5164794922, "dur": 15266.200065612793, "ph": "X", "name": "HashCompilerInvocation", "args": { "durationMS": 15.266200065612793, "detail": "mscorlib3.cpp" } },
{ "pid": 1, "tid": 119, "ts": 235327.5909423828, "dur": 2453.5999298095703, "ph": "X", "name": "HashCompilerInvocation", "args": { "durationMS": 2.4535999298095703, "detail": "UnityEngine.SharedInternalsModule_Attr.cpp" } },
{ "pid": 1, "tid": 119, "ts": 237806.79321289062, "dur": 2370.8999156951904, "ph": "X", "name": "HashCompilerInvocation", "args": { "durationMS": 2.3708999156951904, "detail": "Assembly-CSharp_CodeGen.c" } },
{ "pid": 1, "tid": 119, "ts": 240203.70483398438, "dur": 8527.899742126465, "ph": "X", "name": "HashCompilerInvocation", "args": { "durationMS": 8.527899742126465, "detail": "System.Core.cpp" } },
{ "pid": 1, "tid": 119, "ts": 248757.8125, "dur": 1878.600001335144, "ph": "X", "name": "HashCompilerInvocation", "args": { "durationMS": 1.878600001335144, "detail": "UnityEngine.AudioModule_CodeGen.c" } },
{ "pid": 1, "tid": 119, "ts": 250663.71154785156, "dur": 2397.39990234375, "ph": "X", "name": "HashCompilerInvocation", "args": { "durationMS": 2.39739990234375, "detail": "Il2CppReversePInvokeWrapperTable.cpp" } },
{ "pid": 1, "tid": 119, "ts": 253084.21325683594, "dur": 2490.7000064849854, "ph": "X", "name": "HashCompilerInvocation", "args": { "durationMS": 2.4907000064849854, "detail": "Lump_libil2cpp_codegen.cpp" } },
{ "pid": 1, "tid": 119, "ts": 255597.59521484375, "dur": 1968.000054359436, "ph": "X", "name": "HashCompilerInvocation", "args": { "durationMS": 1.968000054359436, "detail": "Il2CppGenericComDefinitions7.cpp" } },
{ "pid": 1, "tid": 128, "ph": "M", "name": "thread_name", "args": { "name": "" } },
{ "pid": 1, "tid": 128, "ts": 191336.39526367188, "dur": 19500.898361206055, "ph": "X", "name": "HashCompilerInvocation", "args": { "durationMS": 19.500898361206055, "detail": "mscorlib1.cpp" } },
{ "pid": 1, "tid": 128, "ts": 211210.693359375, "dur": 7949.80001449585, "ph": "X", "name": "HashCompilerInvocation", "args": { "durationMS": 7.94980001449585, "detail": "mscorlib14.cpp" } },
{ "pid": 1, "tid": 128, "ts": 219201.20239257812, "dur": 6778.600215911865, "ph": "X", "name": "HashCompilerInvocation", "args": { "durationMS": 6.778600215911865, "detail": "DOTween.cpp" } },
{ "pid": 1, "tid": 128, "ts": 226004.7149658203, "dur": 5176.400184631348, "ph": "X", "name": "HashCompilerInvocation", "args": { "durationMS": 5.176400184631348, "detail": "Generics5.cpp" } },
{ "pid": 1, "tid": 128, "ts": 231210.11352539062, "dur": 2519.2999839782715, "ph": "X", "name": "HashCompilerInvocation", "args": { "durationMS": 2.5192999839782715, "detail": "UnityEngine.TextRenderingModule.cpp" } },
{ "pid": 1, "tid": 128, "ts": 233752.28881835938, "dur": 2633.1000328063965, "ph": "X", "name": "HashCompilerInvocation", "args": { "durationMS": 2.6331000328063965, "detail": "UnityEngine.PhysicsModule.cpp" } },
{ "pid": 1, "tid": 128, "ts": 236409.912109375, "dur": 1967.900037765503, "ph": "X", "name": "HashCompilerInvocation", "args": { "durationMS": 1.967900037765503, "detail": "UnityEngine.TilemapModule.cpp" } },
{ "pid": 1, "tid": 128, "ts": 238401.99279785156, "dur": 1755.1000118255615, "ph": "X", "name": "HashCompilerInvocation", "args": { "durationMS": 1.7551000118255615, "detail": "inflate.c" } },
{ "pid": 1, "tid": 128, "ts": 240229.59899902344, "dur": 8271.400451660156, "ph": "X", "name": "HashCompilerInvocation", "args": { "durationMS": 8.271400451660156, "detail": "infback.c" } },
{ "pid": 1, "tid": 128, "ts": 248522.9034423828, "dur": 1429.2000532150269, "ph": "X", "name": "HashCompilerInvocation", "args": { "durationMS": 1.4292000532150269, "detail": "crc32.c" } },
{ "pid": 1, "tid": 128, "ts": 249978.5919189453, "dur": 2563.6000633239746, "ph": "X", "name": "HashCompilerInvocation", "args": { "durationMS": 2.5636000633239746, "detail": "System.Configuration_CodeGen.c" } },
{ "pid": 1, "tid": 128, "ts": 252564.30053710938, "dur": 2072.000026702881, "ph": "X", "name": "HashCompilerInvocation", "args": { "durationMS": 2.072000026702881, "detail": "Lump_libil2cpp_vm-utils.cpp" } },
{ "pid": 1, "tid": 128, "ts": 254679.19921875, "dur": 1656.8000316619873, "ph": "X", "name": "HashCompilerInvocation", "args": { "durationMS": 1.6568000316619873, "detail": "Il2CppGenericComDefinitions15.cpp" } },
{ "pid": 1, "tid": 126, "ph": "M", "name": "thread_name", "args": { "name": "" } },
{ "pid": 1, "tid": 126, "ts": 191341.00341796875, "dur": 19452.800750732422, "ph": "X", "name": "HashCompilerInvocation", "args": { "durationMS": 19.452800750732422, "detail": "mscorlib10.cpp" } },
{ "pid": 1, "tid": 126, "ts": 211201.20239257812, "dur": 9378.000259399414, "ph": "X", "name": "HashCompilerInvocation", "args": { "durationMS": 9.378000259399414, "detail": "GenericMethods1.cpp" } },
{ "pid": 1, "tid": 126, "ts": 220609.51232910156, "dur": 6083.799839019775, "ph": "X", "name": "HashCompilerInvocation", "args": { "durationMS": 6.083799839019775, "detail": "GenericMethods3.cpp" } },
{ "pid": 1, "tid": 126, "ts": 226721.29821777344, "dur": 4312.5, "ph": "X", "name": "HashCompilerInvocation", "args": { "durationMS": 4.3125, "detail": "UnityEngine.IMGUIModule.cpp" } },
{ "pid": 1, "tid": 126, "ts": 231057.6171875, "dur": 17370.100021362305, "ph": "X", "name": "HashCompilerInvocation", "args": { "durationMS": 17.370100021362305, "detail": "Il2CppGenericAdjustorThunkTable.cpp" } },
{ "pid": 1, "tid": 126, "ts": 248451.99584960938, "dur": 1950.0999450683594, "ph": "X", "name": "HashCompilerInvocation", "args": { "durationMS": 1.9500999450683594, "detail": "UnityEngine.TextRenderingModule_CodeGen.c" } },
{ "pid": 1, "tid": 126, "ts": 250435.791015625, "dur": 5306.700229644775, "ph": "X", "name": "HashCompilerInvocation", "args": { "durationMS": 5.306700229644775, "detail": "gc.c" } },
{ "pid": 1, "tid": 126, "ts": 255767.7001953125, "dur": 1745.300054550171, "ph": "X", "name": "HashCompilerInvocation", "args": { "durationMS": 1.745300054550171, "detail": "il2cpp-runtime-stats.cpp" } },
{ "pid": 1, "tid": 129, "ph": "M", "name": "thread_name", "args": { "name": "" } },
{ "pid": 1, "tid": 129, "ts": 191345.9930419922, "dur": 19480.199813842773, "ph": "X", "name": "HashCompilerInvocation", "args": { "durationMS": 19.480199813842773, "detail": "mscorlib13.cpp" } },
{ "pid": 1, "tid": 129, "ts": 211200.79040527344, "dur": 8019.599914550781, "ph": "X", "name": "HashCompilerInvocation", "args": { "durationMS": 8.019599914550781, "detail": "mscorlib15.cpp" } },
{ "pid": 1, "tid": 129, "ts": 219250.99182128906, "dur": 6728.099822998047, "ph": "X", "name": "HashCompilerInvocation", "args": { "durationMS": 6.728099822998047, "detail": "UnityEngine.UI3.cpp" } },
{ "pid": 1, "tid": 129, "ts": 226011.1846923828, "dur": 5397.900104522705, "ph": "X", "name": "HashCompilerInvocation", "args": { "durationMS": 5.397900104522705, "detail": "System.cpp" } },
{ "pid": 1, "tid": 129, "ts": 231432.80029296875, "dur": 2324.199914932251, "ph": "X", "name": "HashCompilerInvocation", "args": { "durationMS": 2.324199914932251, "detail": "Il2CppGenericMethodTable.c" } },
{ "pid": 1, "tid": 129, "ts": 233777.2979736328, "dur": 2994.499921798706, "ph": "X", "name": "HashCompilerInvocation", "args": { "durationMS": 2.994499921798706, "detail": "UnityEngine.AnimationModule_Attr.cpp" } },
{ "pid": 1, "tid": 129, "ts": 236800.68969726562, "dur": 2353.1999588012695, "ph": "X", "name": "HashCompilerInvocation", "args": { "durationMS": 2.3531999588012695, "detail": "UnityEngine.GridModule_Attr.cpp" } },
{ "pid": 1, "tid": 129, "ts": 239175.9796142578, "dur": 1744.1999912261963, "ph": "X", "name": "HashCompilerInvocation", "args": { "durationMS": 1.7441999912261963, "detail": "il2cpp-api.cpp" } },
{ "pid": 1, "tid": 129, "ts": 240950.3936767578, "dur": 8637.200355529785, "ph": "X", "name": "HashCompilerInvocation", "args": { "durationMS": 8.637200355529785, "detail": "gzread.c" } },
{ "pid": 1, "tid": 129, "ts": 249618.10302734375, "dur": 1335.3999853134155, "ph": "X", "name": "HashCompilerInvocation", "args": { "durationMS": 1.3353999853134155, "detail": "UnityEngine.InputLegacyModule_CodeGen.c" } },
{ "pid": 1, "tid": 129, "ts": 250975.9979248047, "dur": 2213.900089263916, "ph": "X", "name": "HashCompilerInvocation", "args": { "durationMS": 2.213900089263916, "detail": "UnityAdsStubs.cpp" } },
{ "pid": 1, "tid": 129, "ts": 253219.29931640625, "dur": 1643.7000036239624, "ph": "X", "name": "HashCompilerInvocation", "args": { "durationMS": 1.6437000036239624, "detail": "Il2CppGenericComDefinitions.cpp" } },
{ "pid": 1, "tid": 129, "ts": 254888.19885253906, "dur": 1544.0000295639038, "ph": "X", "name": "HashCompilerInvocation", "args": { "durationMS": 1.5440000295639038, "detail": "Il2CppGenericComDefinitions18.cpp" } },
{ "pid": 1, "tid": 130, "ph": "M", "name": "thread_name", "args": { "name": "" } },
{ "pid": 1, "tid": 130, "ts": 191348.29711914062, "dur": 19342.80014038086, "ph": "X", "name": "HashCompilerInvocation", "args": { "durationMS": 19.34280014038086, "detail": "GenericMethods2.cpp" } },
{ "pid": 1, "tid": 130, "ts": 211208.2061767578, "dur": 9383.199691772461, "ph": "X", "name": "HashCompilerInvocation", "args": { "durationMS": 9.383199691772461, "detail": "Generics6.cpp" } },
{ "pid": 1, "tid": 130, "ts": 220623.19946289062, "dur": 5698.299884796143, "ph": "X", "name": "HashCompilerInvocation", "args": { "durationMS": 5.698299884796143, "detail": "Il2CppMetadataUsage.c" } },
{ "pid": 1, "tid": 130, "ts": 226344.29931640625, "dur": 4212.699890136719, "ph": "X", "name": "HashCompilerInvocation", "args": { "durationMS": 4.212699890136719, "detail": "UnityEngine.CoreModule_Attr.cpp" } },
{ "pid": 1, "tid": 130, "ts": 230588.28735351562, "dur": 2758.3000659942627, "ph": "X", "name": "HashCompilerInvocation", "args": { "durationMS": 2.7583000659942627, "detail": "DOTween_CodeGen.c" } },
{ "pid": 1, "tid": 130, "ts": 233371.10900878906, "dur": 1708.1999778747559, "ph": "X", "name": "HashCompilerInvocation", "args": { "durationMS": 1.7081999778747559, "detail": "System_CodeGen.c" } },
{ "pid": 1, "tid": 130, "ts": 235104.6905517578, "dur": 2622.499942779541, "ph": "X", "name": "HashCompilerInvocation", "args": { "durationMS": 2.622499942779541, "detail": "Il2CppCCFieldValuesTable.cpp" } },
{ "pid": 1, "tid": 130, "ts": 237801.69677734375, "dur": 2097.899913787842, "ph": "X", "name": "HashCompilerInvocation", "args": { "durationMS": 2.097899913787842, "detail": "UnityEngine.InputLegacyModule_Attr.cpp" } },
{ "pid": 1, "tid": 130, "ts": 239922.8973388672, "dur": 7777.299880981445, "ph": "X", "name": "HashCompilerInvocation", "args": { "durationMS": 7.777299880981445, "detail": "UnityEngine.AnimationModule_CodeGen.c" } },
{ "pid": 1, "tid": 130, "ts": 247722.01538085938, "dur": 2315.5999183654785, "ph": "X", "name": "HashCompilerInvocation", "args": { "durationMS": 2.3155999183654785, "detail": "UnityEngine.SharedInternalsModule_CodeGen.c" } },
{ "pid": 1, "tid": 130, "ts": 250064.51416015625, "dur": 3442.3000812530518, "ph": "X", "name": "HashCompilerInvocation", "args": { "durationMS": 3.4423000812530518, "detail": "Lump_libil2cpp_vm.cpp" } },
{ "pid": 1, "tid": 130, "ts": 253531.494140625, "dur": 1665.8999919891357, "ph": "X", "name": "HashCompilerInvocation", "args": { "durationMS": 1.6658999919891357, "detail": "Il2CppGenericComDefinitions1.cpp" } },
{ "pid": 1, "tid": 130, "ts": 255237.19787597656, "dur": 1745.4999685287476, "ph": "X", "name": "HashCompilerInvocation", "args": { "durationMS": 1.7454999685287476, "detail": "Il2CppGenericComDefinitions20.cpp" } },
{ "pid": 1, "tid": 183, "ph": "M", "name": "thread_name", "args": { "name": "" } },
{ "pid": 1, "tid": 183, "ts": 213325.40893554688, "dur": 17017.29965209961, "ph": "X", "name": "HeaderFileHashProvider.HashForAllHeaderFilesReachableByFilesIn", "args": { "durationMS": 17.01729965209961, "detail": "C:\\Program Files\\Unity\\Hub\\Editor\\2020.3.18f1\\Editor\\Data\\il2cpp\\external\\baselib\\Include" } },
{ "pid": 1, "tid": 217, "ph": "M", "name": "thread_name", "args": { "name": "" } },
{ "pid": 1, "tid": 217, "ts": 221678.89404296875, "dur": 8598.199844360352, "ph": "X", "name": "HeaderFileHashProvider.HashForAllHeaderFilesReachableByFilesIn", "args": { "durationMS": 8.598199844360352, "detail": "C:\\Program Files\\Unity\\Hub\\Editor\\2020.3.18f1\\Editor\\Data\\il2cpp\\libil2cpp" } },
{ "pid": 1, "tid": 333, "ph": "M", "name": "thread_name", "args": { "name": "" } },
{ "pid": 1, "tid": 333, "ts": 238907.1807861328, "dur": 9465.999603271484, "ph": "X", "name": "HeaderFileHashProvider.HashForAllHeaderFilesReachableByFilesIn", "args": { "durationMS": 9.465999603271484, "detail": "C:\\Program Files\\Unity\\Hub\\Editor\\2020.3.18f1\\Editor\\Data\\il2cpp\\libil2cpp" } },
{ "pid": 1, "tid": 339, "ph": "M", "name": "thread_name", "args": { "name": "" } },
{ "pid": 1, "tid": 339, "ts": 238928.40576171875, "dur": 9442.000389099121, "ph": "X", "name": "HeaderFileHashProvider.HashForAllHeaderFilesReachableByFilesIn", "args": { "durationMS": 9.442000389099121, "detail": "C:\\Program Files\\Unity\\Hub\\Editor\\2020.3.18f1\\Editor\\Data\\il2cpp\\libil2cpp" } },
{ "pid": 1, "tid": 369, "ph": "M", "name": "thread_name", "args": { "name": "" } },
{ "pid": 1, "tid": 369, "ts": 241341.5985107422, "dur": 6094.699859619141, "ph": "X", "name": "HeaderFileHashProvider.HashForAllHeaderFilesReachableByFilesIn", "args": { "durationMS": 6.094699859619141, "detail": "C:\\Program Files\\Unity\\Hub\\Editor\\2020.3.18f1\\Editor\\Data\\il2cpp\\libil2cpp" } },
{ "pid": 1, "tid": 367, "ph": "M", "name": "thread_name", "args": { "name": "" } },
{ "pid": 1, "tid": 367, "ts": 241339.90478515625, "dur": 6082.900047302246, "ph": "X", "name": "HeaderFileHashProvider.HashForAllHeaderFilesReachableByFilesIn", "args": { "durationMS": 6.082900047302246, "detail": "C:\\Program Files\\Unity\\Hub\\Editor\\2020.3.18f1\\Editor\\Data\\il2cpp\\external\\xxHash" } },
{ "pid": 1, "tid": 541, "ph": "M", "name": "thread_name", "args": { "name": "" } },
{ "pid": 1, "tid": 541, "ts": 269948.91357421875, "dur": 1984836.42578125, "ph": "X", "name": "Compile", "args": { "durationMS": 1984.83642578125, "detail": "Il2CppCCalculateFieldValues.cpp" } },
{ "pid": 1, "tid": 536, "ph": "M", "name": "thread_name", "args": { "name": "" } },
{ "pid": 1, "tid": 536, "ts": 269952.57568359375, "dur": 789469.6655273438, "ph": "X", "name": "Compile", "args": { "durationMS": 789.4696655273438, "detail": "Il2CppGenericAdjustorThunkTable.cpp" } },
{ "pid": 1, "tid": 540, "ph": "M", "name": "thread_name", "args": { "name": "" } },
{ "pid": 1, "tid": 540, "ts": 269954.89501953125, "dur": 1462681.396484375, "ph": "X", "name": "Compile", "args": { "durationMS": 1462.681396484375, "detail": "Il2CppCCalculateTypeValues.cpp" } },
{ "pid": 1, "tid": 532, "ph": "M", "name": "thread_name", "args": { "name": "" } },
{ "pid": 1, "tid": 532, "ts": 269959.5031738281, "dur": 464751.0070800781, "ph": "X", "name": "Compile", "args": { "durationMS": 464.7510070800781, "detail": "Assembly-CSharp_CodeGen.c" } },
{ "pid": 1, "tid": 537, "ph": "M", "name": "thread_name", "args": { "name": "" } },
{ "pid": 1, "tid": 537, "ts": 269964.3859863281, "dur": 750667.724609375, "ph": "X", "name": "Compile", "args": { "durationMS": 750.667724609375, "detail": "Il2CppMetadataUsage.c" } },
{ "pid": 1, "tid": 539, "ph": "M", "name": "thread_name", "args": { "name": "" } },
{ "pid": 1, "tid": 539, "ts": 269968.1091308594, "dur": 939832.7026367188, "ph": "X", "name": "Compile", "args": { "durationMS": 939.8327026367188, "detail": "Il2CppGenericMethodPointerTable.cpp" } },
{ "pid": 1, "tid": 533, "ph": "M", "name": "thread_name", "args": { "name": "" } },
{ "pid": 1, "tid": 533, "ts": 269972.5036621094, "dur": 781893.4936523438, "ph": "X", "name": "Compile", "args": { "durationMS": 781.8934936523438, "detail": "Il2CppCCFieldValuesTable.cpp" } },
{ "pid": 1, "tid": 538, "ph": "M", "name": "thread_name", "args": { "name": "" } },
{ "pid": 1, "tid": 538, "ts": 269980.3771972656, "dur": 2461791.9921875, "ph": "X", "name": "Compile", "args": { "durationMS": 2461.7919921875, "detail": "Assembly-CSharp.cpp" } },
{ "pid": 1, "tid": 535, "ph": "M", "name": "thread_name", "args": { "name": "" } },
{ "pid": 1, "tid": 535, "ts": 269983.4899902344, "dur": 530014.5874023438, "ph": "X", "name": "Compile", "args": { "durationMS": 530.0145874023438, "detail": "Il2CppGenericMethodTable.c" } },
{ "pid": 1, "tid": 534, "ph": "M", "name": "thread_name", "args": { "name": "" } },
{ "pid": 1, "tid": 534, "ts": 269990.6005859375, "dur": 494254.7912597656, "ph": "X", "name": "Compile", "args": { "durationMS": 494.2547912597656, "detail": "Il2CppGenericMethodDefinitions.c" } }
],
"meta_datetime": "09/26/2021 10:49:42",
"meta_command_line": "\"C:\\Program Files\\Unity\\Hub\\Editor\\2020.3.18f1\\Editor\\Data\\il2cpp\\build\\deploy\\netcoreapp3.1\\il2cpp.dll\" --compile-cpp --libil2cpp-static --platform=Android --architecture=ARM64 --configuration=Release \"--outputpath=C:\\Personal\\Dev\\Projects\\Enixan Test\\Library\\Il2cppBuildCache\\Android\\arm64-v8a\\Native\\arm64-v8a\\libil2cpp.so\" \"--cachedirectory=C:\\Personal\\Dev\\Projects\\Enixan Test\\Assets\\..\\Library\\il2cpp_android_arm64-v8a/il2cpp_cache\" \"--additional-include-directories=C:/Program Files/Unity/Hub/Editor/2020.3.18f1/Editor/Data/PlaybackEngines/AndroidPlayer/Tools\\bdwgc/include\" \"--additional-include-directories=C:/Program Files/Unity/Hub/Editor/2020.3.18f1/Editor/Data/PlaybackEngines/AndroidPlayer/Tools\\libil2cpp/include\" \"--baselib-directory=C:/Program Files/Unity/Hub/Editor/2020.3.18f1/Editor/Data/PlaybackEngines/AndroidPlayer\\Variations\\il2cpp\\Development\\StaticLibs\\arm64-v8a\" --avoid-dynamic-library-copy \"--tool-chain-path=C:/Program Files/Unity/Hub/Editor/2020.3.18f1/Editor/Data/PlaybackEngines/AndroidPlayer/NDK\" --incremental-g-c-time-slice=3 --profiler-report \"--map-file-parser=C:/Program Files/Unity/Hub/Editor/2020.3.18f1/Editor/Data/Tools/MapFileParser/MapFileParser.exe\" \"--generatedcppdir=C:/Personal/Dev/Projects/Enixan Test/Library/Il2cppBuildCache/Android/armeabi-v7a/il2cppOutput\" --dotnetprofile=unityaot",
"meta_command_line_args": "C:\\Program Files\\Unity\\Hub\\Editor\\2020.3.18f1\\Editor\\Data\\il2cpp\\build\\deploy\\netcoreapp3.1\\il2cpp.dll --compile-cpp --libil2cpp-static --platform=Android --architecture=ARM64 --configuration=Release --outputpath=C:\\Personal\\Dev\\Projects\\Enixan Test\\Library\\Il2cppBuildCache\\Android\\arm64-v8a\\Native\\arm64-v8a\\libil2cpp.so --cachedirectory=C:\\Personal\\Dev\\Projects\\Enixan Test\\Assets\\..\\Library\\il2cpp_android_arm64-v8a/il2cpp_cache --additional-include-directories=C:/Program Files/Unity/Hub/Editor/2020.3.18f1/Editor/Data/PlaybackEngines/AndroidPlayer/Tools\\bdwgc/include --additional-include-directories=C:/Program Files/Unity/Hub/Editor/2020.3.18f1/Editor/Data/PlaybackEngines/AndroidPlayer/Tools\\libil2cpp/include --baselib-directory=C:/Program Files/Unity/Hub/Editor/2020.3.18f1/Editor/Data/PlaybackEngines/AndroidPlayer\\Variations\\il2cpp\\Development\\StaticLibs\\arm64-v8a --avoid-dynamic-library-copy --tool-chain-path=C:/Program Files/Unity/Hub/Editor/2020.3.18f1/Editor/Data/PlaybackEngines/AndroidPlayer/NDK --incremental-g-c-time-slice=3 --profiler-report --map-file-parser=C:/Program Files/Unity/Hub/Editor/2020.3.18f1/Editor/Data/Tools/MapFileParser/MapFileParser.exe --generatedcppdir=C:/Personal/Dev/Projects/Enixan Test/Library/Il2cppBuildCache/Android/armeabi-v7a/il2cppOutput --dotnetprofile=unityaot",
"meta_user_name": "Teollin",
"meta_os_version": "Microsoft Windows NT 6.2.9200.0",
"meta_cpu_count": "16"}
