[api-updater (non-obsolete-error-filter)] 9/22/2021 12:48:06 PM : Starting C:/Program Files/Unity/Hub/Editor/2020.3.18f1/Editor/Data/Tools/ScriptUpdater/APIUpdater.NonObsoleteApiUpdaterDetector.exe
[api-updater (non-obsolete-error-filter)] 
----------------------------------
jit/startup time      : 488.018ms
moved types parse time: 41ms
candidates parse time : 0ms
C# parse time         : 351ms
candidates check time : 41ms
console write time    : 0ms

[api-updater (non-obsolete-error-filter)] 9/23/2021 3:38:02 PM : Starting C:/Program Files/Unity/Hub/Editor/2020.3.18f1/Editor/Data/Tools/ScriptUpdater/APIUpdater.NonObsoleteApiUpdaterDetector.exe
[api-updater (non-obsolete-error-filter)] 
----------------------------------
jit/startup time      : 431.9413ms
moved types parse time: 40ms
candidates parse time : 0ms
C# parse time         : 169ms
candidates check time : 20ms
console write time    : 0ms

[api-updater (non-obsolete-error-filter)] 9/24/2021 3:12:59 PM : Starting C:/Program Files/Unity/Hub/Editor/2020.3.18f1/Editor/Data/Tools/ScriptUpdater/APIUpdater.NonObsoleteApiUpdaterDetector.exe
[api-updater (non-obsolete-error-filter)] 
----------------------------------
jit/startup time      : 440.9204ms
moved types parse time: 40ms
candidates parse time : 0ms
C# parse time         : 177ms
candidates check time : 23ms
console write time    : 0ms

[api-updater (non-obsolete-error-filter)] 9/24/2021 6:36:42 PM : Starting C:/Program Files/Unity/Hub/Editor/2020.3.18f1/Editor/Data/Tools/ScriptUpdater/APIUpdater.NonObsoleteApiUpdaterDetector.exe
[api-updater (non-obsolete-error-filter)] 
----------------------------------
jit/startup time      : 372.3369ms
moved types parse time: 38ms
candidates parse time : 0ms
C# parse time         : 185ms
candidates check time : 24ms
console write time    : 0ms

[api-updater (non-obsolete-error-filter)] 9/24/2021 6:38:01 PM : Starting C:/Program Files/Unity/Hub/Editor/2020.3.18f1/Editor/Data/Tools/ScriptUpdater/APIUpdater.NonObsoleteApiUpdaterDetector.exe
[api-updater (non-obsolete-error-filter)] 
----------------------------------
jit/startup time      : 49.6023ms
moved types parse time: 38ms
candidates parse time : 0ms
C# parse time         : 143ms
candidates check time : 23ms
console write time    : 0ms

[api-updater (non-obsolete-error-filter)] 9/24/2021 7:32:33 PM : Starting C:/Program Files/Unity/Hub/Editor/2020.3.18f1/Editor/Data/Tools/ScriptUpdater/APIUpdater.NonObsoleteApiUpdaterDetector.exe
[api-updater (non-obsolete-error-filter)] 
----------------------------------
jit/startup time      : 52.0471ms
moved types parse time: 39ms
candidates parse time : 1ms
C# parse time         : 141ms
candidates check time : 29ms
console write time    : 0ms

[api-updater (non-obsolete-error-filter)] 9/25/2021 5:30:17 PM : Starting C:/Program Files/Unity/Hub/Editor/2020.3.18f1/Editor/Data/Tools/ScriptUpdater/APIUpdater.NonObsoleteApiUpdaterDetector.exe
[api-updater (non-obsolete-error-filter)] 
----------------------------------
jit/startup time      : 424.1029ms
moved types parse time: 39ms
candidates parse time : 0ms
C# parse time         : 233ms
candidates check time : 109ms
console write time    : 0ms

